//modified from valve, inspired by eve, thwartski, frankenhud, more (which included the demoui), tf2hud+ and pvhud (which included hud buttons)

"Resource/UI/MainMenuOverride.res"
{
	MainMenuOverride
	{
		"fieldName"		"MainMenuOverride"
		"visible"		"1"
		"enabled"		"1"
		"xpos"			"0"
		"ypos"			"0"
		"zpos"			"0"
		"wide"			"f0"
		"tall"			"480"
		
		"update_url"	"http://store.steampowered.com/news/?filter=updates&appids=440"
		"blog_url"		"http://www.teamfortress.com/"
		
		"button_x_offset"	"-325"//"-285"
		"button_y"			"120"
		"button_y_delta"	"5"
		"button_kv"
		{
			"xpos"			"0"
			"ypos"			"150"
			"wide"			"250"
			"tall"			"26"
			"visible"		"1"

			"SubButton"
			{
				"ControlName"	"CExImageButton"
				"fieldName"		"SubButton"
				"xpos"			"0"
				"ypos"			"0"
				"wide"			"250"
				"tall"			"26"
				"autoResize"	"0"
				"pinCorner"		"3"
				"visible"		"1"
				"enabled"		"1"
				"tabPosition"	"0"
				"textinsetx"	"25"
				"use_proportional_insets" "1"
				"font"			"HudFontSmallBold"
				"textAlignment"	"west"
				"dulltext"		"0"
				"brighttext"	"0"
				"default"		"1"
				"sound_depressed"	"UI/buttonclick.wav"
				"sound_released"	"UI/buttonclickrelease.wav"
				
				"border_default"	"MainMenuButtonDefault"
				"border_armed"		"MainMenuButtonArmed"
				"paintbackground"	"0"
				
				"defaultFgColor_override" "46 43 42 255"
				"armedFgColor_override" "235 226 202 255"
				"depressedFgColor_override" "46 43 42 255"
				
				"image_drawcolor"	"117 107 94 255"
				"image_armedcolor"	"235 226 202 255"
				"SubImage"
				{
					"ControlName"	"ImagePanel"
					"fieldName"		"SubImage"
					"xpos"			"6"
					"ypos"			"6"
					"zpos"			"1"
					"wide"			"14"
					"tall"			"14"
					"visible"		"1"
					"enabled"		"1"
					"scaleImage"	"1"
				}				
			}		
		}
		
		"achievementicon_kv"
		{
			"xpos" "0"
			"ypos" "40"
			"zpos" "1"
			"wide" "20"
			"tall" "20"
			"visible" "1"
			"enabled" "1"
			"scaleImage" "1"
		}
		"SaxxySettings"
		{
			"xpos"			"0"
			"ypos"			"0"
			"zpos"			"-101"		
			"wide"			"f0"
			"tall"			"480"
			
			"autoResize"	"0"
			"pinCorner"		"0"
			"visible"		"1"
			"enabled"		"1"
			
			"flashbounds_x"	"50"
			"flashbounds_y"	"65"
			"flashbounds_w"	"250"
			"flashbounds_h"	"120"
			
			"flashstartsize_min"	"8"
			"flashstartsize_max"	"12"
			
			"flash_maxscale"		"4"
			
			"flash_lifelength_min"	".1"
			"flash_lifelength_max"	".2"
			
			"curtain_anim_duration"		"4.0"
			"curtain_open_time"		"2.8"
			"flash_start_time"		"4.0"
			
			"initial_freakout_duration"		"15.0"
			"clap_sound_duration"	"10.0"
			
			"CameraFlashSettings"
			{
				"visible"		"1"
				"enabled"		"1"
				"tileImage"		"0"
				"scaleImage"	"1"
				"zpos"			"9"
			}
	}	
	"mouseoveritempanel"
	{
		"ControlName"	"CItemModelPanel"
		"fieldName"		"mouseoveritempanel"
		"xpos"			"c-70"
		"ypos"			"270"
		"zpos"			"100"
		"wide"			"300"
		"tall"			"300"
		"visible"		"0"
		"bgcolor_override"		"0 0 0 0"
		"noitem_textcolor"		"117 107 94 255"
		"PaintBackgroundType"	"2"
		"paintborder"	"1"
		"border"		"MainMenuBGBorder"
		
		"text_ypos"			"20"
		"text_center"		"1"
		"model_hide"		"1"
		"resize_to_text"	"1"
		"padding_height"	"15"
		
		"attriblabel"
		{
			"font"			"ItemFontAttribLarge"
			"xpos"			"0"
			"ypos"			"30"
			"zpos"			"2"
			"wide"			"140"
			"tall"			"60"
			"autoResize"	"0"
			"pinCorner"		"0"
			"visible"		"1"
			"enabled"		"1"
			"labelText"		"%attriblist%"
			"textAlignment"	"center"
			"fgcolor"		"117 107 94 255"
			"centerwrap"	"1"
		}
	}
	"Background"
	{
		"ControlName"	"ScalableImagePanel"
		"fieldName"		"Background"
		"xpos"			"cs-0.5"
		"ypos"			"0"
		"zpos"			"-200"
		"wide"			"o1.6"
		"tall"			"f0"
		"visible"		"0"
		"enabled"		"1"
		"image"			""
		"scaleImage"	"1"
		"proportionaltoparent"	"1"

		if_wider
		{
			"wide"			"f0"
			"tall"			"o0.628"
		}

		if_taller
		{
			"wide"			"o1.6"
			"tall"			"f0"
		}
		
		if_halloween_0
		{
			"image"		"../console/title_team_halloween2011_widescreen"
		}
		if_halloween_1
		{
			"image"		"../console/title_team_halloween2012_widescreen"
		}
		if_halloween_2
		{
			"image"		"../console/title_team_halloween2013_widescreen"
		}
		if_halloween_3
		{
			"image"		"../console/title_team_halloween2014_widescreen"
		}
		if_halloween_4
		{	
			"image"		"../console/title_team_halloween2015_widescreen"
		}
		if_halloween_5
		{	
			"image"		"../console/title_scream_fortress_2017_widescreen"
		}
		if_fullmoon
		{
			"image"		"../console/title_fullmoon_widescreen"
		}
		if_christmas
		{
			"image"		"../console/background_xmas2011_widescreen"
		}
		if_operation
		{
			"image"		"../console/title_team_jungle_inferno_2017_widescreen"
		}
//		if_eotl_launch
//		{
//			"image"		"../console/title_eotl01"
//		}
//		if_spy_vs_engy_war
//		{
//			"image"		"../console/background_sve_01"
//		}
//		if_operation
//		{
//			"image"		"../console/title_team_tough_break"
//		}
//		if_community_update
//		{
//			"image"		"../console/title_invasion"
//		}

	}
	
//	"TFLogoImage"			old
//	{
//		"ControlName"	"ImagePanel"
//		"fieldName"		"TFLogoImage"
//		"xpos"			"100"//"c-330"
//		"ypos"			"48"
//		"zpos"			"-99"
//		"wide"			"256"
//		"tall"			"64"
//		"visible"		"1"
//		"enabled"		"1"
//		"image"			"../logo/new_tf2_logo"
//		"scaleImage"	"1"
//		"mouseinputenabled"	"0"
//
//	}	

	"SweetHudLabel"
		{
			"ControlName"	"CExLabel"
			"fieldName"		"SweetHudLabel"
			"font"			"ScoreboardSmall"
			"labelText"		"sweetHud v1.65 (2018-4-04)"
			//"textAlignment"	"east"
			"xpos"			"r108"
			"ypos"			"r30"
			"zpos"			"2"
			"wide"			"250"
			"tall"			"50"
			"visible"		"1"
			"enabled"		"1"
			"fgcolor_override"	"235 226 202 255"
		}

	"TFLogoImage"
	{
		"ControlName"	"ImagePanel"
		"fieldName"		"TFLogoImage"
		"xpos"			"c-290"//"c-330"
		"ypos"			"32"
		"zpos"			"-99"
		"wide"			"256"
		"tall"			"64"
		"visible"		"1"
		"enabled"		"1"
		"image"			"../logo/new_tf2_logo"
		"scaleImage"	"1"
		"mouseinputenabled"	"0"
		 
		if_halloween_0
		{
			"image"		"../logo/scream_fortress2017_logo"
		}
		if_halloween_1
		{
			"image"		"../logo/scream_fortress2017_logo"
		}
		if_halloween_2
		{
			"image"		"../logo/scream_fortress2017_logo"
		}
		if_halloween_3
		{
			"image"		"../logo/scream_fortress2017_logo"
		}
		if_halloween_4
		{	
			"image"		"../logo/scream_fortress2017_logo"
		}
		if_halloween_5
		{	
			"image"		"../logo/scream_fortress2017_logo"
		}
	}	
	
	"TFCharacterImage"
	{
		"ControlName"	"ImagePanel"
		"fieldName"		"TFCharacterImage"
		"xpos"			"r620"//"c-240"
		"ypos"			"9999"
		"zpos"			"9999"
		"wide"			"0"
		"tall"			"0"
		"visible"		"0"
		"enabled"		"0"
		"scaleImage"	"0"
	}
	
	"GamesBGPanel"
	{
		"ControlName"	"EditablePanel"
		"fieldName"		"GamesBGPanel"
		"xpos"			"c-290"//"c-330"//"c-290"
		"ypos"			"162" //122
		"zpos"			"-1"
		"wide"			"260"
		"tall"			"61" //90
		"visible"		"1"
		"pinCorner"		"0"
		"autoResize"	"0"
		"PaintBackgroundType"	"2"
		"border"		"MainMenuBGBorder"
	}	
	"GamesLabel"
	{
		"ControlName"	"CExLabel"
		"fieldName"		"GamesLabel"
		"font"			"HudFontSmallBold"
		"labelText"		"Games"//"#MMenu_Play"
		"textAlignment"	"west"
		"xpos"			"c-278"//"c-318"//"c-278"
		"ypos"			"163"
		"wide"			"140"
		"tall"			"30"
		"autoResize"	"0"
		"pinCorner"		"0"
		"visible"		"1"
		"enabled"		"1"
		"fgcolor_override"	"235 227 203 255"
	}
		"ConsoleMiniButton"
	{
		"ControlName"	"EditablePanel"
		"fieldname"		"ConsoleMiniButton"
		"xpos"			"c-60"
		"ypos"			"237"
		"zpos"			"30"
		"wide"			"20"
		"tall"			"20"
		"visible"		"1"
		"SubButton"
		{
			"ControlName"	"CExImageButton"
			"fieldName"		"SubButton"
			"xpos"			"0"
			"ypos"			"0"
			"wide"			"20"
			"tall"			"20"
			"autoResize"	"0"
			"pinCorner"		"3"
			"visible"		"1"
			"enabled"		"1"
			"tabPosition"	"0"
			"textinsetx"	"2"
			"use_proportional_insets" "1"
			"font"			"HudFontSmallestBold"
			"textAlignment"	"west"
			"dulltext"		"0"
			"brighttext"	"0"
			"default"		"1"
			"sound_depressed"	"UI/buttonclick.wav"
			"sound_released"	"UI/buttonclickrelease.wav"

			"border_default"	"NoBorder"
			"border_armed"		"NoBorder"		//TeamMenuBorder
	//		"paintbackground"	"0"

			"defaultFgColor_override" "255 255 255 255"
			"armedFgColor_override" "146 71 56 255"
			"depressedFgColor_override" "46 43 42 255"

			"defaultBgColor_override" "0 0 0 0"
			"armedBgColor_override" "0 0 0 0"
			"depressedBgColor_override" "0 0 0 0"

		//	"image_drawcolor"	"235 226 202 255"
		//	"image_armedcolor"	"235 226 202 255"

		}

	}
	
	"RankModelPanel"
	{
		"ControlName"	"CPvPRankPanel"
		"fieldName"		"RankModelPanel"
		"xpos"			"-438"
		"ypos"			"cs-0.5-114"

		"zpos"			"-51"
		"wide"			"1000"
		"tall"			"1000"
		"visible"		"0"
		"proportionaltoparent"	"1"
		"mouseinputenabled"	"1"

		"matchgroup"	"MatchGroup_Casual_12v12"

		"show_progress"	"0"
	}

	"RankPanel"
	{
		"ControlName"	"CPvPRankPanel"
		"fieldName"		"RankPanel"
		"xpos"			"30"
		"ypos"			"79"
		"zpos"			"-52"
		"wide"			"260" //320
		"tall"			"100"
		"visible"		"1"
		"proportionaltoparent"	"1"
		"mouseinputenabled"	"0"

		"matchgroup"	"MatchGroup_Casual_12v12"
		"xp_source_notification_center_x"	"350"

		"show_model"	"0"

	//	"PaintBackgroundType"	"2"
	//	"border"		"MainMenuBGBorder"
	}
	"CycleRankTypeButton"
	{
		"ControlName"	"CExImageButton"
		"fieldName"		"CycleRankTypeButton"
		"xpos"			"c-287"
		"ypos"			"cs-0.5-93"
		"zpos"			"1"
		"wide"			"11"
		"tall"			"11"
		"autoResize"	"0"
		"pinCorner"		"3"
		"visible"		"1"
		"enabled"		"1"
		"tabPosition"	"0"
		"textinsetx"	"25"
		"labelText"		""
		"use_proportional_insets" "1"
		"font"			"HudFontSmallBold"
		"command"		"open_rank_type_menu"
		"textAlignment"	"west"
		"dulltext"		"0"
		"brighttext"	"0"
		"default"		"1"
		"sound_depressed"	"UI/buttonclick.wav"
		"sound_released"	"vo/null.mp3"
		"actionsignallevel" "1"
		"proportionaltoparent"	"1"
				
		"sound_depressed"	"UI/buttonclick.wav"
		"sound_released"	"UI/buttonclickrelease.wav"
		"image_drawcolor"	"235 226 202 255"
		"image_armedcolor"	"255 255 255 255"

		"SubImage"
		{
			"ControlName"	"ImagePanel"
			"fieldName"		"SubImage"
			"xpos"			"cs-0.5"
			"ypos"			"cs-0.5"
			"zpos"			"1"
			"wide"			"f2"
			"tall"			"f2"
			"visible"		"1"
			"enabled"		"1"
			"scaleImage"	"1"
			"image"			"glyph_options"

			"proportionaltoparent"	"1"
			"mouseinputenabled"	"0"
			"keyboardinputenabled" "0"
		}		
	}
		"RankTooltipPanel"
	{
		"ControlName"	"ImagePanel"
		"fieldName"		"RankTooltipPanel"
		"xpos"			"c-286"
		"ypos"			"104"
		"zpos"			"-1"
		"wide"			"8"
		"tall"			"8"
		"visible"		"1"
		"proportionaltoparent"	"1"
		"mouseinputenabled"	"1"
		"image"			"info"
		"scaleImage"	"1"	
		"alpha"			"75"
	}
		"RankBorder"
	{
		"ControlName"	"EditablePanel"
		"fieldName"		"RankBorder"
		"xpos"			"c-290" //c-290
		"ypos"			"101"
		"zpos"			"-100"
		"wide"			"260"
		"tall"			"55"
		"visible"		"1"
		"PaintBackgroundType"	"2"
		"border"		"MainMenuBGBorder"
		"proportionaltoparent"	"1"
	}
		"NoGCMessage"
	{
		"ControlName"	"Label"
		"fieldName"		"NoGCMessage"
		"xpos"			"c-325"
		"ypos"			"100"
		"zpos"			"-99"
		"wide"			"260"
		"tall"			"100"
		"visible"		"1"
		"proportionaltoparent"	"1"
		"mouseinputenabled"	"0"
		"wrap"			"1"
		"textinsetx"	"40"
		"textinsety"	"10"

		"font"			"HudFontSmallestBold"
		"fgcolor_override"	"TanLight"
		"labelText"		"#TF_MM_NoGC_Rank"
		"textAlignment"	"north-west"
		"use_proportional_insets"	"1"
	}

	"NoGCImage"
	{
		"ControlName"	"ImagePanel"
		"fieldName"		"NoGCImage"
		"xpos"			"c-322"
		"ypos"			"111"
		"zpos"			"-99"
		"wide"			"30"
		"tall"			"30"
		"visible"		"1"
		"enabled"		"1"
		"image"			"gc_dc"
		"scaleImage"	"1"
		"proportionaltoparent" "1"
	}	

	"TooltipPanel"
	{
		"ControlName"	"EditablePanel"
		"fieldName"		"TooltipPanel"
		"xpos"			"0"
		"ypos"			"0"
		"zpos"			"1000"
		"wide"			"150"
		"tall"			"50"
		"visible"		"0"
		"PaintBackgroundType"	"2"
		"border"		"MainMenuBGBorder"
		
		"TipSubLabel"
		{
			"ControlName"	"CExLabel"
			"fieldName"		"TipSubLabel"
			"font"			"HudFontSmall"
			"labelText"		"%tipsubtext%"
			"textAlignment"	"center"
			"xpos"			"20"
			"ypos"			"30"
			"zpos"			"2"
			"wide"			"250"
			"tall"			"50"
			"autoResize"	"0"
			"pinCorner"		"0"
			"visible"		"1"
			"enabled"		"1"
			"fgcolor_override"	"117 107 94 255"
			"wrap"			"1"
		}
		
		"TipLabel"
		{
			"ControlName"	"CExLabel"
			"fieldName"		"TipLabel"
			"font"			"HudFontSmallBold"
			"labelText"		"%tiptext%"
			"textAlignment"	"center"
			"xpos"			"20"
			"ypos"			"5"
			"zpos"			"2"
			"wide"			"140"
			"tall"			"30"
			"autoResize"	"0"
			"pinCorner"		"0"
			"visible"		"1"
			"enabled"		"1"
			"fgcolor_override"	"235 226 202 255"
			"auto_wide_tocontents" "1"
		}
	}	
	


	"StoreMiniButton"
	{
		"ControlName"	"EditablePanel"
		"fieldname"		"StoreMiniButton"
		"xpos"			"c-60"//"c-100"//"c-60"
		"ypos"			"262"
		"zpos"			"30"
		"wide"			"20"
		"tall"			"20"
		"visible"		"1"
		
		"SubButton"
		{
			"ControlName"	"CExImageButton"
			"fieldName"		"SubButton"
			"xpos"			"0"
			"ypos"			"0"
			"wide"			"20"
			"tall"			"20"
			"autoResize"	"0"
			"pinCorner"		"3"
			"visible"		"1"
			"enabled"		"1"
			"tabPosition"	"0"
			"textinsetx"	"100"
			"use_proportional_insets" "1"
			"font"			"HudFontSmallBold"
			"textAlignment"	"west"
			"dulltext"		"0"
			"brighttext"	"0"
			"default"		"1"
			"sound_depressed"	"UI/buttonclick.wav"
			"sound_released"	"UI/buttonclickrelease.wav"
			
			"border_default"	"MainMenuMiniButtonDefault"
			"border_armed"		"MainMenuMiniButtonArmed"
			"paintbackground"	"0"
			
			"defaultFgColor_override" "46 43 42 255"
			"armedFgColor_override" "46 43 42 255"
			"depressedFgColor_override" "46 43 42 255"
			
			"image_drawcolor"	"235 226 202 255"
			"image_armedcolor"	"235 226 202 255"
			
			"SubImage"
			{
				"ControlName"	"ImagePanel"
				"fieldName"		"SubImage"
				"xpos"			"4"
				"ypos"			"4"
				"zpos"			"1"
				"wide"			"12"
				"tall"			"12"
				"visible"		"1"
				"enabled"		"1"
				"image" 		"glyph_store"
				"scaleImage"	"1"
			}				
		}		
	}
	
	"DemoMiniButton"
	{
		"ControlName"	"EditablePanel"
		"fieldname"		"DemoMiniButton"
		"xpos"			"c-60"//"c-100"//"c-60"
		"ypos"			"330"
		"zpos"			"30"
		"wide"			"20"
		"tall"			"20"
		"visible"		"1"
		
		"SubButton"
		{
			"ControlName"	"CExImageButton"
			"fieldName"		"SubButton"
			"xpos"			"0"
			"ypos"			"0"
			"wide"			"20"
			"tall"			"20"
			"autoResize"	"0"
			"pinCorner"		"3"
			"visible"		"1"
			"enabled"		"1"
			"tabPosition"	"0"
			"textinsetx"	"100"
			"use_proportional_insets" "1"
			"font"			"HudFontSmallBold"
			"textAlignment"	"west"
			"dulltext"		"0"
			"brighttext"	"0"
			"default"		"1"
			"sound_depressed"	"UI/buttonclick.wav"
			"sound_released"	"UI/buttonclickrelease.wav"
			
			"border_default"	"MainMenuMiniButtonDefault"
			"border_armed"		"MainMenuMiniButtonArmed"
			"paintbackground"	"0"
			
			"defaultFgColor_override" "46 43 42 255"
			"armedFgColor_override" "46 43 42 255"
			"depressedFgColor_override" "46 43 42 255"
			
			"image_drawcolor"	"235 226 202 255"
			"image_armedcolor"	"235 226 202 255"
			
			"SubImage"
			{
				"ControlName"	"ImagePanel"
				"fieldName"		"SubImage"
				"xpos"			"4"
				"ypos"			"4"
				"zpos"			"1"
				"wide"			"12"
				"tall"			"12"
				"visible"		"1"
				"enabled"		"1"
				"image" 		"../hud/ico_replay"
				"scaleImage"	"1"
			}				
		}		
	}	
		"TopRightContainer"
	{
			"ControlName"	"EditablePanel"
			"fieldName"		"TopRightContainer"
			"xpos"			"c95"
			"ypos"			"26"
			"zpos"			"0"
			"wide"			"212"
			"tall"			"36"
			"autoResize"	"3"
			"pinCorner"		"0"
			"visible"		"0"
			"enabled"		"1"
			"tabPosition"	"0"
			"border"		"MainMenuBGBorder"
			"PaintBackgroundType"	"2"
	}

	"Notifications_ShowButtonPanel"
	{
		"ControlName"	"EditablePanel"
		"fieldName"		"Notifications_ShowButtonPanel"
		"xpos"			"c138"
		"ypos"			"48"
		"zpos"			"10"
		"wide"			"32"
		"tall"			"32"
		"autoResize"	"0"
		"pinCorner"		"3"
		"visible"		"1"
		"enabled"		"1"

		"navUp"			"MOTD_ShowButtonPanel"
		"navDown"		"SettingsButton"
		"navLeft"		"ServerBrowserButton"
		"navRight"		"Notifications_Panel"
		"navToRelay"	"Notifications_ShowButtonPanel_SB"
		
		"SubImage"
		{
			"ControlName"	"ImagePanel"
			"fieldName"		"SubImage"
			"xpos"			"16"
			"ypos"			"0"
			"zpos"			"3"
			"wide"			"16"
			"tall"			"16"
			"visible"		"1"
			"enabled"		"1"
			"image"			"glyph_achievements"
			"scaleImage"	"1"
			"drawcolor" "210 125 33 255"
		}				
		
		"Notifications_CountLabel"
		{
			"ControlName"	"CExLabel"
			"fieldName"		"Notifications_CountLabel"
			"font"			"HudFontSmallestBold"
			"labelText"		"%noticount%"
			"textAlignment"	"center"
			"xpos"			"16"
			"ypos"			"0"
			"zpos"			"4"
			"wide"			"16"
			"tall"			"16"
			"autoResize"	"0"
			"pinCorner"		"0"
			"visible"		"1"
			"enabled"		"1"
			"fgcolor_override"	"255 255 255 255"
		}
	
		"Notifications_ShowButtonPanel_SB"
		{
			"ControlName"	"CExImageButton"
			"fieldName"		"Notifications_ShowButtonPanel_SB"
			"xpos"			"0"
			"ypos"			"0"
			"zpos"			"1"
			"wide"			"32"
			"tall"			"32"
			"autoResize"	"0"
			"pinCorner"		"3"
			"visible"		"1"
			"enabled"		"1"
			"tabPosition"	"0"
			"labelText"		""
			"font"			"HudFontSmallestBold"
			"textAlignment"	"center"
			"dulltext"		"0"
			"brighttext"	"0"
			"default"		"1"
			"actionsignallevel" "2"

			"Command"		"noti_show"
			"navActivate"	"<ServerBrowserButton"

			"sound_depressed"	"UI/buttonclick.wav"
			"sound_released"	"UI/buttonclickrelease.wav"
			"paintbackground" "0"
			"image_drawcolor"	"235 226 202 255"
			"image_armedcolor"	"255 255 255 255"
			
			"SubImage"
			{
				"ControlName"	"ImagePanel"
				"fieldName"		"SubImage"
				"xpos"			"0"
				"ypos"			"0"
				"zpos"			"1"
				"wide"			"32"
				"tall"			"32"
				"visible"		"1"
				"enabled"		"1"
				"image"			"button_Alert"
				"scaleImage"	"1"
			}
		}
	}

	"WatchStreamButton"
	{
		"ControlName"	"EditablePanel"
		"fieldName"		"WatchStreamButton"
		"xpos"			"r200"
		"ypos"			"48"
		"zpos"			"1"
		"wide"			"32"
		"tall"			"32"
		"autoResize"	"0"
		"pinCorner"		"3"
		"visible"		"1"
		"enabled"		"1"
		"tabPosition"	"0"
		
		"navUp"			"Notifications_Panel"
		"navLeft"		"SettingsButton"

		"SubButton"
		{
			"ControlName"	"CExImageButton"
			"fieldName"		"SubButton"
			"xpos"			"0"
			"ypos"			"0"
			"wide"			"f0"
			"tall"			"f0"
			"autoResize"	"0"
			"pinCorner"		"3"
			"visible"		"1"
			"enabled"		"1"
			"tabPosition"	"0"
			"textinsetx"	"25"
			"labelText"		""
			"use_proportional_insets" "1"
			"font"			"HudFontSmallBold"
			"command"		"watch_stream"
			"textAlignment"	"west"
			"dulltext"		"0"
			"brighttext"	"0"
			"default"		"1"
			"sound_depressed"	"UI/buttonclick.wav"
			"sound_released"	"vo/null.mp3"
			"actionsignallevel" "2"
			"proportionaltoparent"	"1"
				
			"sound_depressed"	"UI/buttonclick.wav"
			"sound_released"	"UI/buttonclickrelease.wav"
			"paintbackground"	"0"
			"paintborder"		"0"
			"image_drawcolor"	"235 226 202 255"
			"image_armedcolor"	"255 255 255 255"

			"SubImage"
			{
				"ControlName"	"ImagePanel"
				"fieldName"		"SubImage"
				"xpos"			"cs-0.5"
				"ypos"			"cs-0.5"
				"zpos"			"1"
				"wide"			"f0"
				"tall"			"f0"
				"visible"		"1"
				"enabled"		"1"
				"scaleImage"	"1"
				"image"			"button_streaming"

				"proportionaltoparent"	"1"
				"mouseinputenabled"	"0"
				"keyboardinputenabled" "0"
			}		
		}
	}

	"StreamListPanel"
	{
		"ControlName"	"CTFStreamListPanel"
		"fieldName"		"StreamListPanel"
		"xpos"			"c5"
		"ypos"			"65"
		"zpos"			"2"
		"wide"			"300"
		"tall"			"350"
		"visible"		"0"
		"PaintBackgroundType"	"2"
		"paintbackground"	"0"
		"border"		"MainMenuHighlightBorder"

		"navDown"		"SettingsButton"		// when a sub element can't nav down it will pass through this
		"navLeft"		"WatchStreamButton"	// when a sub element can't nav left it will pass through this
	}
	"QuestLogButton"
	{
		"ControlName"	"EditablePanel"
		"fieldName"		"QuestLogButton"
		"xpos"			"r150"
		"ypos"			"48"
		"zpos"			"1"
		"wide"			"32"
		"tall"			"32"
		"autoResize"	"0"
		"pinCorner"		"3"
		"visible"		"1"
		"enabled"		"1"
		"tabPosition"	"0"
		
		"navUp"			"Notifications_Panel"
		"navLeft"		"SettingsButton"

		"SubButton"
		{
			"ControlName"	"CExImageButton"
			"fieldName"		"SubButton"
			"xpos"			"0"
			"ypos"			"0"
			"wide"			"f0"
			"tall"			"f0"
			"autoResize"	"0"
			"pinCorner"		"3"
			"visible"		"1"
			"enabled"		"1"
			"tabPosition"	"0"
			"textinsetx"	"25"
			"labelText"		""
			"use_proportional_insets" "1"
			"font"			"HudFontSmallBold"
			"command"		"questlog"
			"textAlignment"	"west"
			"dulltext"		"0"
			"brighttext"	"0"
			"default"		"1"
			"sound_depressed"	"UI/buttonclick.wav"
			"sound_released"	"UI/buttonclickrelease.wav"
			"actionsignallevel" "2"
			"proportionaltoparent"	"1"
				
			"sound_depressed"	"UI/buttonclick.wav"
			"sound_released"	"UI/buttonclickrelease.wav"
			"paintbackground"	"0"
			"paintborder"		"0"
			"image_drawcolor"	"235 226 202 255"
			"image_armedcolor"	"255 255 255 255"

			"SubImage"
			{
				"ControlName"	"ImagePanel"
				"fieldName"		"SubImage"
				"xpos"			"cs-0.5"
				"ypos"			"cs-0.5"
				"zpos"			"1"
				"wide"			"f0"
				"tall"			"f0"
				"visible"		"1"
				"enabled"		"1"
				"scaleImage"	"1"
				"image"			"button_quests_pda"

				"proportionaltoparent"	"1"
				"mouseinputenabled"	"0"
				"keyboardinputenabled" "0"
			}		
		}
		
		"NotificationsContainer"
		{
			"ControlName"	"EditablePanel"
			"fieldName"		"NotificationsContainer"
			"xpos"			"rs1"
			"ypos"			"0"
			"zpos"			"10"
			"wide"			"16"
			"tall"			"16"
			"visible"		"0"
			"proportionaltoparent"	"1"
			"mouseinputenabled"	"0"
			"keyboardinputenabled" "0"

			"SubImage"
			{
				"ControlName"	"ImagePanel"
				"fieldName"		"SubImage"
				"xpos"			"cs-0.5"
				"ypos"			"cs-0.5"
				"zpos"			"3"
				"wide"			"16"
				"tall"			"16"
				"visible"		"1"
				"enabled"		"1"
				"image"			"glyph_achievements"
				"scaleImage"	"1"
				"drawcolor" "210 125 33 255"
				"proportionaltoparent"	"1"
			}				
		
			"Notifications_CountLabel"
			{
				"ControlName"	"CExLabel"
				"fieldName"		"Notifications_CountLabel"
				"font"			"HudFontSmallestBold"
				"labelText"		"%noticount%"
				"textAlignment"	"center"
				"xpos"			"cs-0.5"
				"ypos"			"cs-0.5"
				"zpos"			"4"
				"wide"			"16"
				"tall"			"16"
				"autoResize"	"0"
				"pinCorner"		"0"
				"visible"		"1"
				"enabled"		"1"
				"fgcolor_override"	"255 255 255 255"
				"proportionaltoparent"	"1"
			}
		}
	}
	
	"MOTD_ShowButtonPanel"
	{
		"ControlName"	"EditablePanel"
		"fieldName"		"MOTD_ShowButtonPanel"
		"xpos"			"r100"//"c200"
		"ypos"			"48"
		"zpos"			"1"
		"wide"			"32"
		"tall"			"32"
		"autoResize"	"0"
		"pinCorner"		"3"
		"visible"		"1"
		"enabled"		"1"
		
		"MOTD_ShowButtonPanel_SB"
		{
			"ControlName"	"CExImageButton"
			"fieldName"		"MOTD_ShowButtonPanel_SB"
			"xpos"			"0"
			"ypos"			"0"
			"zpos"			"1"
			"wide"			"32"
			"tall"			"32"
			"autoResize"	"0"
			"pinCorner"		"3"
			"visible"		"1"
			"enabled"		"1"
			"tabPosition"	"0"
			"labelText"		""
			"font"			"HudFontSmallestBold"
			"textAlignment"	"center"
			"dulltext"		"0"
			"brighttext"	"0"
			"default"		"1"
			"actionsignallevel" "2"
			"Command"		"motd_show"
			"sound_depressed"	"UI/buttonclick.wav"
			"sound_released"	"UI/buttonclickrelease.wav"
			"paintbackground" "0"
			"image_drawcolor"	"235 226 202 255"
			"image_armedcolor"	"255 255 255 255"

			"SubImage"
			{
				"ControlName"	"ImagePanel"
				"fieldName"		"SubImage"
				"xpos"			"0"
				"ypos"			"0"
				"zpos"			"1"
				"wide"			"32"
				"tall"			"32"
				"visible"		"1"
				"enabled"		"1"
				"image"			"button_MOTD"
				"scaleImage"	"1"
			}
		}
	}
	
	"MOTD_Panel"
	{
		"ControlName"	"EditablePanel"
		"fieldName"		"MOTD_Panel"
		"xpos"			"c-10"
		"ypos"			"40"
		"zpos"			"50"
		"wide"			"300"
		"tall"			"360"
		"visible"		"0"
		"PaintBackgroundType"	"2"
		"paintbackground"	"0"
		"border"		"MainMenuHighlightBorder"
		
		"MOTD_HeaderContainer"
		{
			"ControlName"	"EditablePanel"
			"fieldName"		"MOTD_HeaderContainer"
			"xpos"			"0"
			"ypos"			"0"
			"wide"			"300"
			"tall"			"22"
			"visible"		"1"
			
			"MOTD_HeaderLabel"
			{
				"ControlName"	"CExLabel"
				"fieldName"		"MOTD_HeaderLabel"
				"font"			"HudFontSmallBold"
				"textAlignment"	"center"
				"labelText"		"%motdheader%"
				"xpos"			"0"
				"ypos"			"0"
				"wide"			"300"
				"tall"			"24"
				"autoResize"	"0"
				"pinCorner"		"0"
				"visible"		"1"
				"enabled"		"1"
				"PaintBackgroundType" "2"
				"fgcolor_override"	"235 226 202 255"
				"bgcolor_override"	"141 178 61 255"
			}
		}
		
		"MOTD_CloseButton"
		{
			"ControlName"	"CExImageButton"
			"fieldName"		"MOTD_CloseButton"
			"xpos"			"282"
			"ypos"			"4"
			"zpos"			"10"
			"wide"			"14"
			"tall"			"14"
			"autoResize"	"0"
			"pinCorner"		"0"
			"visible"		"1"
			"enabled"		"1"
			"tabPosition"	"0"
			"labeltext"		""
			"font"			"HudFontSmallBold"
			"textAlignment"	"center"
			"dulltext"		"0"
			"brighttext"	"0"
			"default"		"0"
			"actionsignallevel" "2"
			"sound_depressed"	"UI/buttonclick.wav"
			"sound_released"	"UI/buttonclickrelease.wav"
			"Command"		"motd_hide"
			
			"paintbackground"	"0"
			
			//"defaultFgColor_override" "235 226 202 255"
			//"armedFgColor_override" "46 43 42 255"
			"defaultFgColor_override" "46 43 42 255"
			"armedFgColor_override" "235 226 202 255"
			"depressedFgColor_override" "46 43 42 255"
			
			"image_drawcolor"	"235 226 202 255"
			"image_armedcolor"	"200 80 60 255"
			"SubImage"
			{
				"ControlName"	"ImagePanel"
				"fieldName"		"SubImage"
				"xpos"			"0"
				"ypos"			"0"
				"zpos"			"1"
				"wide"			"14"
				"tall"			"14"
				"visible"		"1"
				"enabled"		"1"
				"image"			"close_button"
				"scaleImage"	"1"
			}				
		}	

		"MOTD_HeaderIcon"
		{
			"ControlName"	"ImagePanel"
			"fieldName"		"MOTD_HeaderIcon"
			"xpos"			"265"
			"ypos"			"25"
			"zpos"			"100"
			"wide"			"25"
			"tall"			"25"
			"visible"		"0"
			"enabled"		"1"
			"image"			"class_icons/filter_all_motd"
			"scaleImage"	"1"
		}
			
		"MOTD_TitleLabel"
		{
			"ControlName"	"CExLabel"
			"fieldName"		"MOTD_TitleLabel"
			"font"			"HudFontSmallBold"
			"labelText"		"%motdtitle%"
			"textAlignment"	"west"
			"xpos"			"10"
			"ypos"			"25"
			"wide"			"250"
			"tall"			"15"
			"autoResize"	"0"
			"pinCorner"		"0"
			"visible"		"1"
			"enabled"		"1"
			"fgcolor_override"	"46 43 42 255"
			"wrap"			"1"
		}
		
		"MOTD_Label"
		{
			"ControlName"	"CExLabel"
			"fieldName"		"MOTD_Label"
			"font"			"HudFontSmall"
			"labelText"		"%motddate%"
			"textAlignment"	"north-west"
			"xpos"			"10"
			"ypos"			"40"
			"wide"			"300"
			"tall"			"15"
			"autoResize"	"0"
			"pinCorner"		"0"
			"visible"		"1"
			"enabled"		"1"
			"fgcolor_override"	"46 43 42 255"
		}
		
		"MOTD_TitleImageBg"
		{
			"ControlName"	"ImagePanel"
			"fieldName"		"MOTD_TitleImageBg"
			"xpos"			"10"
			"ypos"			"55"
			"zpos"			"99"
			"wide"			"280"
			"tall"			"180"
			"visible"		"1"
			"enabled"		"1"
			"image"			"item_bg"
			"scaleImage"	"1"
		}
		
		"MOTD_TitleImageContainer"
		{
			"ControlName"	"EditablePanel"
			"fieldName"		"MOTD_TitleImageContainer"
			"xpos"			"10"
			"ypos"			"55"
			"zpos"			"100"
			"wide"			"280"
			"tall"			"180"
			"visible"		"1"
			
			"MOTD_TitleImage"
			{
				"ControlName"	"ImagePanel"
				"fieldName"		"MOTD_TitleImage"
				"xpos"			"0"
				"ypos"			"0"
				"zpos"			"100"
				"wide"			"280"
				"tall"			"280"
				"visible"		"1"
				"enabled"		"1"
				"image"			"class_icons/filter_all"
				"scaleImage"	"0"
			}
		}
			
		"MOTD_TextScroller"
		{
			"ControlName"	"ScrollableEditablePanel"
			"fieldName"		"MOTD_TextScroller"
			"xpos"			"20"
			"ypos"			"240"
			"wide"			"280"
			"tall"			"95"
			"PaintBackgroundType"	"2"
			"fgcolor_override"	"117 107 94 255"
			
			"MOTD_TextPanel"
			{
				"ControlName"	"EditablePanel"
				"fieldName"		"MOTD_TextPanel"
				"xpos"			"0"
				"ypos"			"0"
				"wide"			"250"
				"tall"			"300"
				"visible"		"1"
				"PaintBackgroundType"	"2"
			
				"MOTD_TextLabel"
				{
					"ControlName"	"CExLabel"
					"fieldName"		"MOTD_TextLabel"
					"font"			"HudFontSmall"
					"labelText"		"%motdtext%"
					"textAlignment"	"north-west"
					"xpos"			"0"
					"ypos"			"0"
					"wide"			"250"
					"tall"			"300"
					"autoResize"	"0"
					"pinCorner"		"0"
					"visible"		"1"
					"enabled"		"1"
					"fgcolor_override"	"46 43 42 255"
					"wrap"			"1"
				}
			}
		}
		
		"MOTD_URLButton"
		{
			"ControlName"	"CExButton"
			"fieldName"		"MOTD_URLButton"
			"xpos"			"75"
			"ypos"			"339"
			"wide"			"150"
			"tall"			"15"
			"autoResize"	"0"
			"pinCorner"		"3"
			"visible"		"1"
			"enabled"		"1"
			"tabPosition"	"0"
			"labelText"		"#MMenu_MOTD_URL"
			"textinsetx"	"20"
			"use_proportional_insets" "1"
			"font"			"HudFontSmallestBold"
			"textAlignment"	"center"
			"dulltext"		"0"
			"brighttext"	"0"
			"default"		"1"
			"actionsignallevel" "2"
			"command"		"motd_viewurl"
			"proportionaltoparent" "1"  //addded in eotl
			"sound_depressed"	"UI/buttonclick.wav"
			"sound_released"	"UI/buttonclickrelease.wav"
			
			"defaultFgColor_override" "235 226 202 255"
			"defaultBgColor_override" "46 43 42 255"
			"armedFgColor_override" "235 226 202 255"
			"depressedFgColor_override" "235 226 202 255"
		}	
		
		"MOTD_PrevButton"
		{
			"ControlName"	"CExImageButton"
			"fieldName"		"MOTD_PrevButton"
			"xpos"			"12"
			"ypos"			"336"
			"zpos"			"1"
			"wide"			"20"
			"tall"			"20"
			"autoResize"	"0"
			"pinCorner"		"3"
			"visible"		"1"
			"enabled"		"1"
			"tabPosition"	"0"
			"labelText"		""
			"font"			"HudFontSmallBold"
			"textAlignment"	"center"
			"dulltext"		"0"
			"brighttext"	"0"
			"default"		"1"
			"Command"		"motd_prev"
			"sound_depressed"	"UI/buttonclick.wav"
			"sound_released"	"UI/buttonclickrelease.wav"
			"paintbackground" "0"
			
			"image_drawcolor"	"235 226 202 255"
			"image_armedcolor"	"255 255 255 255"
			"SubImage"
			{
				"ControlName"	"ImagePanel"
				"fieldName"		"SubImage"
				"xpos"			"0"
				"ypos"			"0"
				"zpos"			"1"
				"wide"			"20"
				"tall"			"20"
				"visible"		"1"
				"enabled"		"1"
				"image"			"blog_back"
				"scaleImage"	"1"
			}
		}		
		
		"MOTD_NextButton"
		{
			"ControlName"	"CExImageButton"
			"fieldName"		"MOTD_NextButton"
			"xpos"			"267"
			"ypos"			"336"
			"zpos"			"1"
			"wide"			"20"
			"tall"			"20"
			"autoResize"	"0"
			"pinCorner"		"3"
			"visible"		"1"
			"enabled"		"1"
			"tabPosition"	"0"
			"labelText"		""
			"font"			"HudFontSmallBold"
			"textAlignment"	"center"
			"dulltext"		"0"
			"brighttext"	"0"
			"default"		"1"
			"Command"		"motd_next"
			"sound_depressed"	"UI/buttonclick.wav"
			"sound_released"	"UI/buttonclickrelease.wav"
			"paintbackground" "0"
			
			"image_drawcolor"	"235 226 202 255"
			"image_armedcolor"	"255 255 255 255"
			"SubImage"
			{
				"ControlName"	"ImagePanel"
				"fieldName"		"SubImage"
				"xpos"			"0"
				"ypos"			"0"
				"zpos"			"1"
				"wide"			"20"
				"tall"			"20"
				"visible"		"1"
				"enabled"		"1"
				"image"			"blog_forward"
				"scaleImage"	"1"
			}
		}
	}	
	

	"Notifications_Panel"
	{
		"ControlName"	"EditablePanel"
		"fieldName"		"Notifications_Panel"
		"xpos"			"c42"
		"ypos"			"122"
		"zpos"			"1"
		"wide"			"210"
		"tall"			"80"
		"visible"		"0"
		"PaintBackgroundType"	"2"
		"paintbackground"	"0"
		"border"		"MainMenuHighlightBorder"
		
		"Notifications_CloseButton"
		{
			"ControlName"	"CExImageButton"
			"fieldName"		"Notifications_CloseButton"
			"xpos"			"186"
			"ypos"			"8"
			"zpos"			"10"
			"wide"			"14"
			"tall"			"14"
			"autoResize"	"0"
			"pinCorner"		"0"
			"visible"		"1"
			"enabled"		"1"
			"tabPosition"	"0"
			"labeltext"		""
			"font"			"HudFontSmallBold"
			"textAlignment"	"center"
			"dulltext"		"0"
			"brighttext"	"0"
			"default"		"0"
			"actionsignallevel" "2"
			"sound_depressed"	"UI/buttonclick.wav"
			"sound_released"	"UI/buttonclickrelease.wav"
			"Command"		"noti_hide"
			
			"paintbackground"	"0"
			
			"defaultFgColor_override" "46 43 42 255"
			"armedFgColor_override" "235 226 202 255"
			"depressedFgColor_override" "46 43 42 255"
			
			"image_drawcolor"	"117 107 94 255"
			"image_armedcolor"	"200 80 60 255"
			"SubImage"
			{
				"ControlName"	"ImagePanel"
				"fieldName"		"SubImage"
				"xpos"			"0"
				"ypos"			"0"
				"zpos"			"1"
				"wide"			"14"
				"tall"			"14"
				"visible"		"1"
				"enabled"		"1"
				"image"			"close_button"
				"scaleImage"	"1"
			}				
		}		
	
		"Notifications_TitleLabel"
		{
			"ControlName"	"CExLabel"
			"fieldName"		"Notifications_TitleLabel"
			"font"			"HudFontSmallBold"
			"labelText"		"%notititle%"
			"textAlignment"	"north-west"
			"xpos"			"12"
			"ypos"			"8"
			"wide"			"250"
			"tall"			"20"
			"autoResize"	"0"
			"pinCorner"		"0"
			"visible"		"1"
			"enabled"		"1"
			"fgcolor_override"	"46 43 42 255"
			"wrap"			"1"
		}
		
		"Notifications_Scroller"
		{
			"ControlName"	"ScrollableEditablePanel"
			"fieldName"		"Notifications_Scroller"
			"xpos"			"8"
			"ypos"			"25"
			"wide"			"210"
			"tall"			"135"
			"PaintBackgroundType"	"2"
			"fgcolor_override"	"117 107 94 255"
			
			"Notifications_Control"
			{
				"ControlName"	"CMainMenuNotificationsControl"
				"fieldName"		"Notifications_Control"
				"xpos"			"0"
				"ypos"			"0"
				"wide"			"220"
				"tall"			"135"
				"visible"		"1"
			}
		}
	}	
	
//dead as of EOTL	"HTMLContainer"
//	{
//		"ControlName"	"EditablePanel"
	//	"fieldName"		"HTMLContainer"
//		"xpos"			"c"
//		"ypos"			"130"
//		"wide"			"300"
//		"tall"			"240"
//		"autoResize"	"3"
//		"pinCorner"		"0"
//		"visible"		"0"
//		"enabled"		"1"
//		"tabPosition"	"0"
//		"border"		"MainMenuBGBorder"

//		"HTMLLabel"
//		{
	//		"ControlName"	"CExLabel"
		//	"fieldName"		"HTMLLabel"
	//		"font"			"HudFontSmallestBold"
	//		"labelText"		"#MMenu_HTML"
	//		"textAlignment"	"north-west"
	//		"xpos"			"5"
	//		"ypos"			"5"
	//		"wide"			"290"
	//		"tall"			"15"
	//		"autoResize"	"0"
	//		"pinCorner"		"0"
	//		"visible"		"1"
//			"enabled"		"1"
//		}
//
	//	"HTML"
	//	{
	//		"ControlName"	"HTML"
	//		"fieldName"		"HTML"
	//		"xpos"			"5"
	//		"ypos"			"25"
	//		"wide"			"290"
	//		"tall"			"210"
	//		"autoResize"	"3"
	//		"pinCorner"		"0"
	//		"visible"		"1"
	//		"enabled"		"1"
	//		"tabPosition"	"0"
//		}
//	}	
	"RewardsBGPanel"
	{
		"ControlName"	"EditablePanel"
		"fieldName"		"RewardsBGPanel"
		"xpos"			"c-290"//"c-330"//"c-290"
		"ypos"			"231"
		"zpos"			"-1"
		"wide"			"260"
		"tall"			"61"
		"visible"		"1"
		"PaintBackgroundType"	"2"
		"border"		"MainMenuBGBorder"
	}
	"RewardsLabel"
	{
		"ControlName"	"CExLabel"
		"fieldName"		"RewardsLabel"
		"font"			"HudFontSmallBold"
		"labelText"		"Rewards"//"#MMenu_Customize"
		"textAlignment"	"west"
		"xpos"			"c-278"//"c-318"//"c-278"
		"ypos"			"232"
		"wide"			"140"
		"tall"			"30"
		"autoResize"	"0"
		"pinCorner"		"0"
		"visible"		"1"
		"enabled"		"1"
		"fgcolor_override"	"235 227 203 255"
	}
	"CharacterSetupButton"
	{
		"ControlName"	"EditablePanel"
		"fieldname"		"CharacterSetupButton"
		"xpos"			"c-285"//"c-325"//"c-285"
		"ypos"			"259"
		"zpos"			"11"
		"wide"			"270"
		"tall"			"36"
		"visible"		"1"
		"PaintBackgroundType"	"2"
		"SubButton"
		{
			"ControlName"	"CExImageButton"
			"fieldName"		"SubButton"
			"xpos"			"0"
			"ypos"			"0"
			"wide"			"250"
			"tall"			"26"
			"autoResize"	"0"
			"pinCorner"		"3"
			"visible"		"1"
			"enabled"		"1"
			"tabPosition"	"0"
			"textinsetx"	"25"
			"use_proportional_insets" "1"
			"font"			"HudFontSmallBold"
			"textAlignment"	"west"
			"dulltext"		"0"
			"brighttext"	"0"
			"default"		"1"
			"sound_depressed"	"UI/buttonclick.wav"
			"sound_released"	"UI/buttonclickrelease.wav"
			
			"border_default"	"MainMenuButtonDefault"
			"border_armed"		"MainMenuButtonArmed"
			"paintbackground"	"0"
			
			"defaultFgColor_override" "46 43 42 255"
			"armedFgColor_override" "235 226 202 255"
			"depressedFgColor_override" "46 43 42 255"
			
			"image_drawcolor"	"117 107 94 255"
			"image_armedcolor"	"235 226 202 255"
			"SubImage"
			{
				"ControlName"	"ImagePanel"
				"fieldName"		"SubImage"
				"xpos"			"6"
				"ypos"			"6"
				"zpos"			"1"
				"wide"			"14"
				"tall"			"14"
				"visible"		"1"
				"enabled"		"1"
				"scaleImage"	"1"
			}		
		}
	}
	"AchievementButton"
	{
		"ControlName"	"EditablePanel"
		"fieldname"		"AchievementButton"
		"xpos"			"102"//"c-325"//"c-285"
		"ypos"			"283"
		"zpos"			"11"
		"wide"			"270"
		"tall"			"36"
		"visible"		"0"
		"PaintBackgroundType"	"2"
		"SubButton"
		{
			"ControlName"	"CExImageButton"
			"fieldName"		"SubButton"
			"xpos"			"0"
			"ypos"			"0"
			"wide"			"250"
			"tall"			"26"
			"autoResize"	"0"
			"pinCorner"		"3"
			"visible"		"0"
			"enabled"		"0"
			"tabPosition"	"0"
			"textinsetx"	"25"
			"use_proportional_insets" "1"
			"font"			"HudFontSmallBold"
			"textAlignment"	"west"
			"dulltext"		"0"
			"brighttext"	"0"
			"default"		"1"
			"sound_depressed"	"UI/buttonclick.wav"
			"sound_released"	"UI/buttonclickrelease.wav"
			
			"border_default"	"MainMenuButtonDefault"
			"border_armed"		"MainMenuButtonArmed"
			"paintbackground"	"0"
			
			"defaultFgColor_override" "46 43 42 255"
			"armedFgColor_override" "235 226 202 255"
			"depressedFgColor_override" "46 43 42 255"
			
			"image_drawcolor"	"117 107 94 255"
			"image_armedcolor"	"235 226 202 255"
			"SubImage"
			{
				"ControlName"	"ImagePanel"
				"fieldName"		"SubImage"
				"xpos"			"6"
				"ypos"			"6"
				"zpos"			"1"
				"wide"			"14"
				"tall"			"14"
				"visible"		"0"
				"enabled"		"1"
				"scaleImage"	"1"
			}		
		}
	}
	"RecordingsBGPanel"
	{
		"ControlName"	"EditablePanel"
		"fieldName"		"RecordingsBGPanel"
		"xpos"			"c-290"//"c-330"//"c-290"
		"ypos"			"300"
		"zpos"			"-1"
		"wide"			"260"
		"tall"			"61"
		"visible"		"1"
		"PaintBackgroundType"	"2"
		"border"		"MainMenuBGBorder"
	}
	//faked as a button to allow it to be hidden when ingame
	"FakeRecordingLabelButton"
	{
		"ControlName"	"EditablePanel"
		"fieldname"		"FakeRecordingLabelButton"
		"xpos"			"c-278"
		"ypos"			"302"
		"zpos"			"11"
		"wide"			"140"
		"tall"			"30"
		"visible"		"1"
		"PaintBackgroundType"	"2"
		"SubButton"
		{
			"ControlName"	"CExImageButton"
			"fieldName"		"SubButton"
			"xpos"			"0"
			"ypos"			"0"
			"wide"			"125"
			"tall"			"26"
			"autoResize"	"0"
			"pinCorner"		"3"
			"visible"		"1"
			"enabled"		"1"
			"tabPosition"	"0"
			"textinsetx"	"0"//"25"
			"use_proportional_insets" "1"
			"font"			"HudFontSmallBold"
			"textAlignment"	"west"
			"dulltext"		"0"
			"brighttext"	"0"
			"default"		"1"
			
			"border_default"	""
			"border_armed"		""
			"paintbackground"	"0"
			
			"fgcolor_override"	"235 227 203 255"
			"defaultFgColor_override" "235 227 203 255"
			"armedFgColor_override" "235 227 203 255"
			"depressedFgColor_override" "235 227 203 255"
			
			"image_drawcolor"	"117 107 94 255"
			"image_armedcolor"	"235 226 202 255"
			"SubImage"
			{
				"ControlName"	"ImagePanel"
				"fieldName"		"SubImage"
				"xpos"			"0"
				"ypos"			"0"
				"zpos"			"1"
				"wide"			"0"
				"tall"			"0"
				"visible"		"1"
				"enabled"		"1"
				"scaleImage"	"1"
			}		
		}
	}

	"ReplayBrowserButton"
	{
		"ControlName"	"EditablePanel"
		"fieldname"		"ReplayBrowserButton"
		"xpos"			"c-285"//"c-325"//"c-285"
		"ypos"			"327"
		"zpos"			"11"
		"wide"			"270"
		"tall"			"36"
		"visible"		"1"
		"PaintBackgroundType"	"2"
		"SubButton"
		{
			"ControlName"	"CExImageButton"
			"fieldName"		"SubButton"
			"xpos"			"0"
			"ypos"			"0"
			"wide"			"250"
			"tall"			"26"
			"autoResize"	"0"
			"pinCorner"		"3"
			"visible"		"1"
			"enabled"		"1"
			"tabPosition"	"0"
			"textinsetx"	"25"
			"use_proportional_insets" "1"
			"font"			"HudFontSmallBold"
			"textAlignment"	"west"
			"dulltext"		"0"
			"brighttext"	"0"
			"default"		"1"
			"sound_depressed"	"UI/buttonclick.wav"
			"sound_released"	"UI/buttonclickrelease.wav"
			
			"border_default"	"MainMenuButtonDefault"
			"border_armed"		"MainMenuButtonArmed"
			"paintbackground"	"0"
			
			"defaultFgColor_override" "46 43 42 255"
			"armedFgColor_override" "235 226 202 255"
			"depressedFgColor_override" "46 43 42 255"
			
			"image_drawcolor"	"117 107 94 255"
			"image_armedcolor"	"235 226 202 255"
			"SubImage"
			{
				"ControlName"	"ImagePanel"
				"fieldName"		"SubImage"
				"xpos"			"6"
				"ypos"			"6"
				"zpos"			"1"
				"wide"			"14"
				"tall"			"14"
				"visible"		"1"
				"enabled"		"1"
				"scaleImage"	"1"
			}		
		}
	}

	"FreeTrialPanel"
	{
		"ControlName"	"EditablePanel"
		"fieldName"		"FreeTrialPanel"
		"xpos"			"c-300"
		"ypos"			"310"
		"zpos"			"0"
		"wide"			"250"
		"tall"			"130"
		"visible"		"0"

		"Image"
		{
			"ControlName"	"ImagePanel"
			"fieldName"		"Image"
			"xpos"			"0"
			"ypos"			"0"
			"zpos"			"0"
			"wide"			"80"
			"tall"			"80"
			"visible"		"1"
			"enabled"		"1"
			"image"			"tf_box"
			"scaleImage"	"1"
		}

		"UpgradeLabel1"
		{
			"ControlName"	"CExLabel"
			"fieldName"		"UpgradeLabel"
			"font"			"HudFontSmallestBold"
			"labelText"		"#TF_Trial_MainMenu_Upgrade1"
			"textAlignment"	"north"
			"xpos"			"80"
			"ypos"			"5"
			"wide"			"165"
			"tall"			"80"
			"autoResize"	"0"
			"pinCorner"		"0"
			"visible"		"1"
			"enabled"		"1"
			"wrap"			"1"
		}
		"UpgradeLabel2"
		{
			"ControlName"	"CExLabel"
			"fieldName"		"UpgradeLabel2"
			"font"			"HudFontSmallBold"
			"labelText"		"#TF_Trial_MainMenu_Upgrade2"
			"textAlignment"	"north"
			"xpos"			"80"
			"ypos"			"18"
			"wide"			"165"
			"tall"			"80"
			"autoResize"	"0"
			"pinCorner"		"0"
			"visible"		"1"
			"enabled"		"1"
			"wrap"			"1"
			"fgcolor"		"255 155 138 255"
		}
		"UpgradeLabel3"
		{
			"ControlName"	"CExLabel"
			"fieldName"		"UpgradeLabel3"
			"font"			"HudFontSmallestBold"
			"labelText"		"#TF_Trial_MainMenu_Upgrade3"
			"textAlignment"	"north"
			"xpos"			"80"
			"ypos"			"48"
			"wide"			"165"
			"tall"			"80"
			"autoResize"	"0"
			"pinCorner"		"0"
			"visible"		"1"
			"enabled"		"1"
			"wrap"			"1"
			"fgcolor"		"137 134 127 255"
		}
	}

		"CreateServerMiniButton"
	{
		"ControlName"	"EditablePanel"
		"fieldname"		"CreateServerMiniButton"
		"xpos"			"c-60"//"c100"//"c-60"
		"ypos"			"193"
		"zpos"			"30"
		"wide"			"20"
		"tall"			"20"
		"visible"		"1"
		
		"SubButton"
		{
			"ControlName"	"CExImageButton"
			"fieldName"		"SubButton"
			"xpos"			"0"
			"ypos"			"0"
			"wide"			"20"
			"tall"			"20"
			"autoResize"	"0"
			"pinCorner"		"3"
			"visible"		"1"
			"enabled"		"1"
			"tabPosition"	"0"
			"textinsetx"	"100"
			"use_proportional_insets" "1"
			"font"			"HudFontSmallBold"
			"textAlignment"	"west"
			"dulltext"		"0"
			"brighttext"	"0"
			"default"		"1"
			"sound_depressed"	"UI/buttonclick.wav"
			"sound_released"	"UI/buttonclickrelease.wav"
			
			"border_default"	"MainMenuMiniButtonDefault"
			"border_armed"		"MainMenuMiniButtonArmed"
			"paintbackground"	"0"
			
			"defaultFgColor_override" "46 43 42 255"
			"armedFgColor_override" "46 43 42 255"
			"depressedFgColor_override" "46 43 42 255"
			
			"image_drawcolor"	"235 226 202 255"
			"image_armedcolor"	"235 226 202 255"
			
			"SubImage"
			{
				"ControlName"	"ImagePanel"
				"fieldName"		"SubImage"
				"xpos"			"4"
				"ypos"			"4"
				"zpos"			"1"
				"wide"			"12"
				"tall"			"12"
				"visible"		"1"
				"enabled"		"1"
				"image" 		"glyph_create"
				"scaleImage"	"1"
			}				
		}		
	}
	"ServerBrowserButton"
	{
		"ControlName"	"EditablePanel"
		"fieldname"		"ServerBrowserButton"
		"xpos"			"c-285"//"c-325"//"c-285" 
		"ypos"			"190"
		"zpos"			"11"
		"wide"			"270"
		"tall"			"36"
		"visible"		"1"
		"PaintBackgroundType"	"0"
		"SubButton"
		{
			"ControlName"	"CExImageButton"
			"fieldName"		"SubButton"
			"xpos"			"0"
			"ypos"			"0"
			"wide"			"250"
			"tall"			"26"
			"autoResize"	"0"
			"pinCorner"		"3"
			"visible"		"1"
			"enabled"		"1"
			"tabPosition"	"0"
			"textinsetx"	"25"
			"use_proportional_insets" "1"
			"font"			"HudFontSmallBold"
			"textAlignment"	"west"
			"dulltext"		"0"
			"brighttext"	"0"
			"default"		"1"
			"sound_depressed"	"UI/buttonclick.wav"
			"sound_released"	"UI/buttonclickrelease.wav"
			
			"border_default"	"MainMenuButtonDefault"
			"border_armed"		"MainMenuButtonArmed"
			"paintbackground"	"0"
			
			"defaultFgColor_override" "46 43 42 255"
			"armedFgColor_override" "235 226 202 255"
			"depressedFgColor_override" "46 43 42 255"
			
			"image_drawcolor"	"117 107 94 255"
			"image_armedcolor"	"235 226 202 255"

			"SubImage"
			{
				"ControlName"	"ImagePanel"
				"fieldName"		"SubImage"
				"xpos"			"6"
				"ypos"			"6"
				"zpos"			"1"
				"wide"			"14"
				"tall"			"14"
				"visible"		"1"
				"enabled"		"1"
				"scaleImage"	"1"
			}
		}
	}	
	"ReportPlayerButton"
	{
		"ControlName"	"EditablePanel"
		"fieldname"		"ReportPlayerButton"
		"xpos"			"c-124"
		"ypos"			"168"
		"zpos"			"12"
		"wide"			"26"
		"tall"			"26"
		"visible"		"1"

		"navLeft"		"ResumeGameButton"
		"navRight"		"CallVoteButton"
		"navDown"		"QuickplayChangeButton"
		"navToRelay"	"SubButton"

		"SubButton"
		{
			"ControlName"	"CExImageButton"
			"fieldName"		"SubButton"
			"xpos"			"0"
			"ypos"			"0"
			"wide"			"20"
			"tall"			"20"
			"autoResize"	"0"
			"pinCorner"		"3"
			"visible"		"1"
			"enabled"		"1"
			"tabPosition"	"0"
			"textinsetx"	"100"
			"use_proportional_insets" "1"
			"font"			"HudFontSmallBold"
			"textAlignment"	"west"
			"dulltext"		"0"
			"brighttext"	"0"
			"default"		"1"
			"sound_depressed"	"UI/buttonclick.wav"
			"sound_released"	"UI/buttonclickrelease.wav"
			
			"border_default"	"MainMenuMiniButtonDefault"
			"border_armed"		"MainMenuMiniButtonArmed"
			"paintbackground"	"0"
			
			"defaultFgColor_override" "46 43 42 255"
			"armedFgColor_override" "46 43 42 255"
			"depressedFgColor_override" "46 43 42 255"
			
			"image_drawcolor"	"235 226 202 255"
			"image_armedcolor"	"235 226 202 255"
			
			"SubImage"
			{
				"ControlName"	"ImagePanel"
				"fieldName"		"SubImage"
				"xpos"			"4"
				"ypos"			"4"
				"zpos"			"1"
				"wide"			"12"
				"tall"			"12"
				"visible"		"1"
				"enabled"		"1"
				"image"			"glyph_create"
				"scaleImage"	"1"
			}				
		}
	}
	"CallVoteButton"
	{
		"ControlName"	"EditablePanel"
		"fieldname"		"CallVoteButton"
		"xpos"			"c-82"//"247"//"289"
		"ypos"			"168"
		"zpos"			"12"
		"wide"			"20"
		"tall"			"20"
		"visible"		"1"

		"SubButton"
		{
			"ControlName"	"CExImageButton"
			"fieldName"		"SubButton"
			"xpos"			"0"
			"ypos"			"0"
			"wide"			"20"
			"tall"			"20"
			"autoResize"	"0"
			"pinCorner"		"3"
			"visible"		"1"
			"enabled"		"1"
			"tabPosition"	"0"
			"textinsetx"	"100"
			"use_proportional_insets" "1"
			"font"			"HudFontSmallBold"
			"textAlignment"	"west"
			"dulltext"		"0"
			"brighttext"	"0"
			"default"		"1"
			"sound_depressed"	"UI/buttonclick.wav"
			"sound_released"	"UI/buttonclickrelease.wav"
			
			"border_default"	"MainMenuMiniButtonDefault"
			"border_armed"		"MainMenuMiniButtonArmed"
			"paintbackground"	"0"
			
			"defaultFgColor_override" "46 43 42 255"
			"armedFgColor_override" "46 43 42 255"
			"depressedFgColor_override" "46 43 42 255"
			
			"image_drawcolor"	"235 226 202 255"
			"image_armedcolor"	"235 226 202 255"
			
			"SubImage"
			{
				"ControlName"	"ImagePanel"
				"fieldName"		"SubImage"
				"xpos"			"4"
				"ypos"			"4"
				"zpos"			"1"
				"wide"			"12"
				"tall"			"12"
				"visible"		"1"
				"enabled"		"1"
				"image"			"glyph_create"
				"scaleImage"	"1"
			}				
		}
	}
	"MutePlayersButton"
	{
		"ControlName"	"EditablePanel"
		"fieldname"		"MutePlayersButton"
		"xpos"			"c-103"//"268"//"309"
		"ypos"			"168"
		"zpos"			"12"
		"wide"			"20"
		"tall"			"20"
		"visible"		"1"

		"SubButton"
		{
			"ControlName"	"CExImageButton"
			"fieldName"		"SubButton"
			"xpos"			"0"
			"ypos"			"0"
			"wide"			"20"
			"tall"			"20"
			"autoResize"	"0"
			"pinCorner"		"3"
			"visible"		"1"
			"enabled"		"1"
			"tabPosition"	"0"
			"textinsetx"	"100"
			"use_proportional_insets" "1"
			"font"			"HudFontSmallBold"
			"textAlignment"	"west"
			"dulltext"		"0"
			"brighttext"	"0"
			"default"		"1"
			"sound_depressed"	"UI/buttonclick.wav"
			"sound_released"	"UI/buttonclickrelease.wav"
			
			"border_default"	"MainMenuMiniButtonDefault"
			"border_armed"		"MainMenuMiniButtonArmed"
			"paintbackground"	"0"
			
			"defaultFgColor_override" "46 43 42 255"
			"armedFgColor_override" "46 43 42 255"
			"depressedFgColor_override" "46 43 42 255"
			
			"image_drawcolor"	"235 226 202 255"
			"image_armedcolor"	"235 226 202 255"
			
			"SubImage"
			{
				"ControlName"	"ImagePanel"
				"fieldName"		"SubImage"
				"xpos"			"4"
				"ypos"			"4"
				"zpos"			"1"
				"wide"			"12"
				"tall"			"12"
				"visible"		"1"
				"enabled"		"1"
				"image"			"glyph_create"
				"scaleImage"	"1"
			}				
		}
	}

		"ResumeButton"
	{
		"ControlName"	"EditablePanel"
		"fieldname"		"ResumeButton"
		"xpos"			"c-60"//"331"//"371"
		"ypos"			"168"//"153"
		"zpos"			"12"
		"wide"			"20"
		"tall"			"20"
		"visible"		"1"

		"SubButton"
		{
			"ControlName"	"CExImageButton"
			"fieldName"		"SubButton"
			"xpos"			"0"
			"ypos"			"0"
			"wide"			"20"
			"tall"			"20"
			"autoResize"	"0"
			"pinCorner"		"3"
			"visible"		"1"
			"enabled"		"1"
			"tabPosition"	"0"
			"textinsetx"	"100"
			"use_proportional_insets" "1"
			"font"			"HudFontSmallBold"
			"textAlignment"	"west"
			"dulltext"		"0"
			"brighttext"	"0"
			"default"		"1"
			"sound_depressed"	"UI/buttonclick.wav"
			"sound_released"	"UI/buttonclickrelease.wav"
			
			"border_default"	"MainMenuMiniButtonDefault"
			"border_armed"		"MainMenuMiniButtonArmed"
			"paintbackground"	"0"
			
			"defaultFgColor_override" "46 43 42 255"
			"armedFgColor_override" "46 43 42 255"
			"depressedFgColor_override" "46 43 42 255"
			
			"image_drawcolor"	"235 226 202 255"
			"image_armedcolor"	"235 226 202 255"
			
			"SubImage"
			{
				"ControlName"	"ImagePanel"
				"fieldName"		"SubImage"
				"xpos"			"4"
				"ypos"			"4"
				"zpos"			"1"
				"wide"			"12"
				"tall"			"12"
				"visible"		"1"
				"enabled"		"1"
				"image"			"icon_resume"
				"scaleImage"	"1"
			}				
		}
	}
			"SoundToggleButton"
	{
		"ControlName"	"EditablePanel"
		"fieldname"		"SoundToggleButton"
		"xpos"			"c-145"//"310"//"349" //was 308
		"ypos"			"168"//"153"
		"zpos"			"12"
		"wide"			"20"
		"tall"			"20"
		"visible"		"1"

		"SubButton"
		{
			"ControlName"	"CExImageButton"
			"fieldName"		"SubButton"
			"xpos"			"0"
			"ypos"			"0"
			"wide"			"20"
			"tall"			"20"
			"autoResize"	"0"
			"pinCorner"		"3"
			"visible"		"1"
			"enabled"		"1"
			"tabPosition"	"0"
			"textinsetx"	"100"
			"use_proportional_insets" "1"
			"font"			"HudFontSmallBold"
			"textAlignment"	"west"
			"dulltext"		"0"
			"brighttext"	"0"
			"default"		"1"
			"sound_depressed"	"UI/buttonclick.wav"
			"sound_released"	"UI/buttonclickrelease.wav"
			
			"border_default"	"MainMenuMiniButtonDefault"
			"border_armed"		"MainMenuMiniButtonArmed"
			"paintbackground"	"0"
			
			"defaultFgColor_override" "46 43 42 255"
			"armedFgColor_override" "46 43 42 255"
			"depressedFgColor_override" "46 43 42 255"
			
			"image_drawcolor"	"235 226 202 255"
			"image_armedcolor"	"235 226 202 255"
			
			"SubImage"
			{
				"ControlName"	"ImagePanel"
				"fieldName"		"SubImage"
				"xpos"			"4"
				"ypos"			"4"
				"zpos"			"1"
				"wide"			"12"
				"tall"			"12"
				"visible"		"1"
				"enabled"		"1"
				"image"			"replay/replay_default"
				"scaleImage"	"1"
			}				
		}
	}
	"BackgroundFooter"
	{
		"ControlName"	"ImagePanel"
		"fieldName"		"BackgroundFooter"
		"xpos"			"0"
		"ypos"			"420"
		"zpos"			"-50"
		"wide"			"f0"
		"tall"			"60"
		"visible"		"1"
		"enabled"		"1"
		"image"			"loadout_bottom_gradient"
		"tileImage"		"1"
	}				
	"FooterLine"
	{
		"ControlName"	"ImagePanel"
		"fieldName"		"FooterLine"
		"xpos"			"0"
		"ypos"			"420"
		"zpos"			"-5"
		"wide"			"f0"
		"tall"			"10"
		"visible"		"1"
		"enabled"		"1"
		"image"			"loadout_solid_line"
		"scaleImage"	"1"
	}	
	
	"NewUserForumsButton"
	{
		"ControlName"	"CExImageButton"
		"fieldName"		"NewUserForumsButton"
		"xpos"			"c-131"
		"ypos"			"437"
		"zpos"			"2"
		"wide"			"30"
		"tall"			"25"
		"autoResize"	"0"
		"pinCorner"		"3"
		"visible"		"0"
		"enabled"		"1"
		"tabPosition"	"0"
		"labelText"		""
		"font"			"HudFontSmallBold"
		"textAlignment"	"center"
		"dulltext"		"0"
		"brighttext"	"0"
		"default"		"1"
		"Command"		"view_newuser_forums"
		"sound_depressed"	"UI/buttonclick.wav"
		"sound_released"	"UI/buttonclickrelease.wav"
		"PaintBackgroundType" "0"
		
		"image_drawcolor"	"235 226 202 255"
		"SubImage"
		{
			"ControlName"	"ImagePanel"
			"fieldName"		"SubImage"
			"xpos"			"4"
			"ypos"			"4"
			"zpos"			"1"
			"wide"			"18"
			"tall"			"18"
			"visible"		"0"
			"enabled"		"1"
			"image"			"glyph_tutorial"
			"scaleImage"	"1"
		}				
	}			
	
	"SteamWorkshopStripButton"
	{
		"ControlName"	"EditablePanel"
		"fieldname"		"SteamWorkshopStripButton"
		"xpos"			"c-89"
		"ypos"			"437"//"410"
		"zpos"			"2"
		"wide"			"30"
		"tall"			"25"
		"visible"		"1"
		
		"SubButton"
		{
			"ControlName"	"CExImageButton"
			"fieldName"		"SubButton"
			"xpos"			"0"
			"ypos"			"0"
			"wide"			"30"
			"tall"			"25"
			"autoResize"	"0"
			"pinCorner"		"3"
			"visible"		"1"
			"enabled"		"1"
			"tabPosition"	"0"
			"textinsetx"	"100"
			"use_proportional_insets" "1"
			"font"			"HudFontSmallBold"
			"textAlignment"	"west"
			"dulltext"		"0"
			"brighttext"	"0"
			"default"		"1"
			"sound_depressed"	"UI/buttonclick.wav"
			"sound_released"	"UI/buttonclickrelease.wav"
			
			//"border_default"	"MainMenuMiniButtonDefault"
			//"border_armed"		"MainMenuMiniButtonArmed"
			"paintbackground"	"1"
			
			"defaultFgColor_override" "46 43 42 255"
			"armedFgColor_override" "46 43 42 255"
			"depressedFgColor_override" "46 43 42 255"
			
			"image_drawcolor"	"235 226 202 255"
			"image_armedcolor"	"235 226 202 255"
			
			"SubImage"
			{
				"ControlName"	"ImagePanel"
				"fieldName"		"SubImage"
				"xpos"			"5"
				"ypos"			"5"//"6"
				"zpos"			"1"
				"wide"			"15"
				"tall"			"15"
				"visible"		"1"
				"enabled"		"1"
				"image" "glyph_practice"
				"scaleImage"	"1"
			}				
		}		
	}
	
	"AchievementsButton"
	{
		"ControlName"	"CExImageButton"
		"fieldName"		"AchievementsButton"
		"xpos"			"c-64"
		"ypos"			"437"
		"zpos"			"3"
		"wide"			"30"
		"tall"			"25"
		"autoResize"	"0"
		"pinCorner"		"3"
		"visible"		"1"
		"enabled"		"1"
		"tabPosition"	"0"
		"labelText"		""
		"font"			"HudFontSmallBold"
		"textAlignment"	"center"
		"dulltext"		"0"
		"brighttext"	"0"
		"default"		"1"
		"Command"		"OpenAchievementsDialog"

		"navUp"			"VRModeButton"
		"navLeft"		"NewUserForumsButton"
		"navRight"		"CommentaryButton"

		"sound_depressed"	"UI/buttonclick.wav"
		"sound_released"	"UI/buttonclickrelease.wav"
		"border_default"	"MainMenuSubButtonBorder"
		
		"image_drawcolor"	"235 226 202 255"
		"SubImage"
		{
			"ControlName"	"ImagePanel"
			"fieldName"		"SubImage"
			"xpos"			"5"
			"ypos"			"6"
			"zpos"			"1"
			"wide"			"15"
			"tall"			"15"
			"visible"		"1"
			"enabled"		"1"
			"image"			"glyph_achievements"
			"scaleImage"	"1"
		}				
	}

	"CommentaryButton"
	{
		"ControlName"	"CExImageButton"
		"fieldName"		"CommentaryButton"
		"xpos"			"c-39"
		"ypos"			"437"
		"zpos"			"4"
		"wide"			"30"
		"tall"			"25"
		"autoResize"	"0"
		"pinCorner"		"3"
		"visible"		"1"
		"enabled"		"1"
		"tabPosition"	"0"
		"labelText"		""
		"font"			"HudFontSmallBold"
		"textAlignment"	"center"
		"dulltext"		"0"
		"brighttext"	"0"
		"default"		"1"
		"Command"		"OpenLoadSingleplayerCommentaryDialog"
		"sound_depressed"	"UI/buttonclick.wav"
		"sound_released"	"UI/buttonclickrelease.wav"
		"border_default"	"MainMenuSubButtonBorder"
		
		"image_drawcolor"	"235 226 202 255"
		"SubImage"
		{
			"ControlName"	"ImagePanel"
			"fieldName"		"SubImage"
			"xpos"			"5"
			"ypos"			"5"//"6"
			"zpos"			"1"
			"wide"			"15"
			"tall"			"15"
			"visible"		"1"
			"enabled"		"1"
			//"image"			"glyph_forums"
			"image"			"glyph_commentary"
			"scaleImage"	"1"
		}				
	}		
	
	"CoachPlayersButton"
	{
		"ControlName"	"CExImageButton"
		"fieldName"		"CoachPlayersButton"
		"xpos"			"c-13"//"c-55"
		"ypos"			"437"
		"zpos"			"5"
		"wide"			"25"
		"tall"			"25"
		"autoResize"	"0"
		"pinCorner"		"3"
		"visible"		"1"
		"enabled"		"1"
		"tabPosition"	"0"
		"labelText"		""
		"font"			"HudFontSmallBold"
		"textAlignment"	"center"
		"dulltext"		"0"
		"brighttext"	"0"
		"default"		"1"
		"Command"		"engine cl_coach_toggle"
		"sound_depressed"	"UI/buttonclick.wav"
		"sound_released"	"UI/buttonclickrelease.wav"
		"border_default"	"MainMenuSubButtonBorder"
		
		"image_drawcolor"	"235 226 202 255"
		"SubImage"
		{
			"ControlName"	"ImagePanel"
			"fieldName"		"SubImage"
			"xpos"			"5"
			"ypos"			"5"
			"zpos"			"1"
			"wide"			"15"
			"tall"			"15"
			"visible"		"1"
			"enabled"		"1"
			"image"			"icon_whistle"
		
			//"image"			"glyph_achievements" //now unused
			//"image"			"icon_trash_on" //trashcan with lid onn
			//"image"			"glyph_workshop_delete" //trashcan with lid off
			//"image"			"glyph_workshop_view" //bigger magnifying glass lense
			//"image"			"glyph_server_browser" //smaller magnifying glass already used
			"scaleImage"	"1"
		}				
	}		
	
	"ReportBugButton"
	{
		"ControlName"	"CExImageButton"
		"fieldName"		"ReportBugButton"
		"xpos"			"c+7"
		"ypos"			"437"
		"zpos"			"1"
		"wide"			"30"
		"tall"			"25"
		"autoResize"	"0"
		"pinCorner"		"3"
		"visible"		"1"
		"enabled"		"1"
		"tabPosition"	"0"
		"labelText"		""
		"font"			"HudFontSmallBold"
		"textAlignment"	"center"
		"dulltext"		"0"
		"brighttext"	"0"
		"default"		"1"
		"Command"		"engine bug"
		"sound_depressed"	"UI/buttonclick.wav"
		"sound_released"	"UI/buttonclickrelease.wav"
		"border_default"	"MainMenuSubButtonBorder"
		
		"image_drawcolor"	"235 226 202 255"
		"SubImage"
		{
			"ControlName"	"ImagePanel"
			"fieldName"		"SubImage"
			"xpos"			"10"
			"ypos"			"5"
			"zpos"			"1"
			"wide"			"15"
			"tall"			"15"
			"visible"		"1"
			"enabled"		"1"
			"image"			"glyph_bug"
			"scaleImage"	"1"
		}				
	}		
	
	"AdvancedOptionsStripButton"
	{
		"ControlName"	"EditablePanel"
		"fieldname"		"AdvancedOptionsStripButton"
		"xpos"			"c+32"
		"ypos"			"437"//"410"
		"zpos"			"0"
		"wide"			"30"
		"tall"			"25"
		"visible"		"1"
		
		"SubButton"
		{
			"ControlName"	"CExImageButton"
			"fieldName"		"SubButton"
			"xpos"			"0"
			"ypos"			"0"
			"wide"			"30"
			"tall"			"25"
			"autoResize"	"0"
			"pinCorner"		"3"
			"visible"		"1"
			"enabled"		"1"
			"tabPosition"	"0"
			"textinsetx"	"100"
			"use_proportional_insets" "1"
			"font"			"HudFontSmallBold"
			"textAlignment"	"west"
			"dulltext"		"0"
			"brighttext"	"0"
			"default"		"1"
			"sound_depressed"	"UI/buttonclick.wav"
			"sound_released"	"UI/buttonclickrelease.wav"
			//"border_default"	"MainMenuSubButtonBorder"
			
			//"border_default"	"MainMenuMiniButtonDefault"
			//"border_armed"		"MainMenuMiniButtonArmed"
			"paintbackground"	"1"
			


			"defaultFgColor_override" "46 43 42 255"
			"armedFgColor_override" "46 43 42 255"
			"depressedFgColor_override" "46 43 42 255"
			
			"image_drawcolor"	"235 226 202 255"
			"image_armedcolor"	"235 226 202 255"
			
			"SubImage"
			{
				"ControlName"	"ImagePanel"
				"fieldName"		"SubImage"
				"xpos"			"10"
				"ypos"			"5"
				"zpos"			"1"
				"wide"			"15"


				"tall"			"15"
				"visible"		"1"
				"enabled"		"1"
				"image" "glyph_practice"
				"scaleImage"	"1"
			}				
		}		
	}
	
	"MinmodeOffStrip"
	{
		"ControlName"	"EditablePanel"
		"fieldname"		"MinmodeOffStrip"
		"xpos"			"c74"
		"ypos"			"437"//"410"
		"zpos"			"1"
		"wide"			"26"
		"tall"			"25"
		"visible"		"1"
		
		"SubButton"
		{
			"ControlName"	"CExImageButton"
			"fieldName"		"SubButton"
			"xpos"			"0"
			"ypos"			"0"
			"wide"			"30"
			"tall"			"25"
			"autoResize"	"0"
			"pinCorner"		"3"
			"visible"		"1"
			"enabled"		"1"
			"tabPosition"	"0"
			"textinsetx"	"100"
			"use_proportional_insets" "1"
			"font"			"HudFontSmallBold"
			"textAlignment"	"west"
			"dulltext"		"0"
			"brighttext"	"0"
			"default"		"1"
			"sound_depressed"	"UI/buttonclick.wav"
			"sound_released"	"UI/buttonclickrelease.wav"
			//"Command"		"cl_hud_minmode 0"
			//"border_default"	"MainMenuMiniButtonDefault"
			//"border_armed"		"MainMenuMiniButtonArmed"
			"paintbackground"	"1"
			
			"defaultFgColor_override" "46 43 42 255"
			"armedFgColor_override" "46 43 42 255"
			"depressedFgColor_override" "46 43 42 255"
			
			"image_drawcolor"	"235 226 202 255"
			"image_armedcolor"	"235 226 202 255"
			
			"SubImage"
			{
				"ControlName"	"ImagePanel"
				"fieldName"		"SubImage"
				"xpos"			"5"
				"ypos"			"5"//"6"
				"zpos"			"1"
				"wide"			"15"
				"tall"			"15"
				"visible"		"1"
				"enabled"		"1"
				"image" "glyph_practice"
				"scaleImage"	"1"
			}				
		}		
	}
		"VerticalLine"
	{
		"ControlName"		"ImagePanel"
		"fieldName"		"VerticalLine"
		"xpos"			"c99"
		"ypos"			"437"
		"zpos"			"4"
		"wide"			"1"
		"tall"			"25"
		"autoResize"	"0"
		"pinCorner"		"0"
		"visible"		"1"
		"enabled"		"1"
		"tabPosition"	"0"	
		"fillcolor"		"0 0 0 205"
		"PaintBackgroundType"	"0"

	}
	"MinmodeOnStrip"
	{
		"ControlName"	"EditablePanel"
		"fieldname"		"MinmodeOnStrip"
		"xpos"			"c96"
		"ypos"			"437"//"410"
		"zpos"			"0"
		"wide"			"30"
		"tall"			"25"
		"visible"		"1"
		
		"SubButton"
		{
			"ControlName"	"CExImageButton"
			"fieldName"		"SubButton"
			"xpos"			"0"
			"ypos"			"0"
			"wide"			"30"
			"tall"			"25"
			"autoResize"	"0"
			"pinCorner"		"3"
			"visible"		"1"
			"enabled"		"1"
			"tabPosition"	"0"
			"textinsetx"	"100"
			"use_proportional_insets" "1"
			"font"			"HudFontSmallBold"
			"dulltext"		"0"
			"brighttext"	"0"
			"default"		"1"
			"sound_depressed"	"UI/buttonclick.wav"
			"sound_released"	"UI/buttonclickrelease.wav"
			//"border_default"	"MainMenuSubButtonBorder"
			
			//"border_default"	"MainMenuMiniButtonDefault"
			//"border_armed"		"MainMenuMiniButtonArmed"
			"paintbackground"	"1"
			


			"defaultFgColor_override" "46 43 42 255"
			"armedFgColor_override" "46 43 42 255"
			"depressedFgColor_override" "46 43 42 255"
			
			"image_drawcolor"	"235 226 202 255"
			"image_armedcolor"	"235 226 202 255"
			
			"SubImage"
			{
				"ControlName"	"ImagePanel"
				"fieldName"		"SubImage"
				"xpos"			"10"
				"ypos"			"5"
				"zpos"			"1"
				"wide"			"15"
				"tall"			"15"
				"visible"		"1"
				"enabled"		"1"
				"image" "glyph_practice"
				"scaleImage"	"1"
			}				
		}		
	}
	
	"SettingsButton"
	{
		"ControlName"	"CExImageButton"
		"fieldName"		"SettingsButton"
		"xpos"			"c140"//"c150"//"c14"
		"ypos"			"437"
		"zpos"			"1"
		"wide"			"150"
		"tall"			"25"
		"autoResize"	"0"
		"pinCorner"		"3"
		"visible"		"1"
		"enabled"		"1"
		"tabPosition"	"0"
		"labelText"		"Edit Settings"//"#GameUI_GameMenu_Options"
		"font"			"HudFontSmallBold"
		"textAlignment"	"west"
		"textinsetx"	"35"
		"use_proportional_insets" "1"
		"dulltext"		"0"
		"brighttext"	"0"
		"default"		"1"
		"Command"		"OpenOptionsDialog"
		"sound_depressed"	"UI/buttonclick.wav"
		"sound_released"	"UI/buttonclickrelease.wav"
		
		"image_drawcolor"	"235 226 202 255"
		"SubImage"
		{
			"ControlName"	"ImagePanel"
			"fieldName"		"SubImage"
			"xpos"			"16"
			"ypos"			"6"
			"zpos"			"1"
			"wide"			"14"
			"tall"			"14"
			"visible"		"1"

			"enabled"		"1"
			"scaleImage"	"1"
			//"image"			"glyph_options"
			"image"			"glyph_workshop_edit" //pencil on paper. perfect for settings
			
		}			
	}		
	
	"QuitButton"
	{
		"ControlName"	"CExImageButton"
		"fieldName"		"QuitButton"
		"xpos"			"c-290"//"c-300"
		"ypos"			"437"
		"zpos"			"1"
		"wide"			"150"
		"tall"			"25"
		"autoResize"	"0"
		"pinCorner"		"3"
		"visible"		"1"
		"enabled"		"1"
		"tabPosition"	"0"
		"labelText"		"Quit Game"//"#TF_Quit_Title"
		"font"			"HudFontSmallBold"
		"textAlignment"	"west"
		"textinsetx"	"35"
		"use_proportional_insets" "1"
		"dulltext"		"0"
		"brighttext"	"0"
		"default"		"1"
		"Command"		"engine replay_confirmquit"
		"sound_depressed"	"UI/buttonclick.wav"
		"sound_released"	"UI/buttonclickrelease.wav"
		
		"image_drawcolor"	"235 226 202 255"
		"SubImage"
		{
			"ControlName"	"ImagePanel"
			"fieldName"		"SubImage"
			"xpos"			"16"
			"ypos"			"6"
			"zpos"			"1"
			"wide"			"14"
			"tall"			"14"
			"visible"		"1"
			"enabled"		"1"
			"scaleImage"	"1"
			"image"			"glyph_quit"
		}				
	}			
	
	"DisconnectButton"
	{
		"ControlName"	"CExImageButton"
		"fieldName"		"DisconnectButton"
		"xpos"			"c-290"//"c-300"
		"ypos"			"437"
		"zpos"			"1"
		"wide"			"150"
		"tall"			"25"
		"autoResize"	"0"
		"pinCorner"		"3"
		"visible"		"1"
		"enabled"		"1"
		"tabPosition"	"0"
		"labelText"		"#GameUI_GameMenu_Disconnect"
		"font"			"HudFontSmallBold"
		"textAlignment"	"west"
		"textinsetx"	"35"
		"use_proportional_insets" "1"
		"dulltext"		"0"
		"brighttext"	"0"
		"default"		"1"
		"Command"		"engine disconnect"
		"sound_depressed"	"UI/buttonclick.wav"
		"sound_released"	"UI/buttonclickrelease.wav"
		
		"image_drawcolor"	"235 226 202 255"
		"SubImage"
		{
			"ControlName"	"ImagePanel"
			"fieldName"		"SubImage"
			"xpos"			"16"
			"ypos"			"6"
			"zpos"			"1"
			"wide"			"14"
			"tall"			"14"
			"visible"		"1"
			"enabled"		"1"
			"scaleImage"	"1"
			"image"			"glyph_close_X" //simple x. should work for quitting.
			//"image" "icon_resume"
		}				
	}			
	
	"BackToReplaysButton"
	{
		"ControlName"	"CExImageButton"
		"fieldName"		"BackToReplaysButton"
		"xpos"			"c-300"
		"ypos"			"437"
		"zpos"			"1"
		"wide"			"170"
		"tall"			"25"
		"autoResize"	"0"
		"pinCorner"		"3"
		"visible"		"0"
		"enabled"		"1"
		"tabPosition"	"0"
		"labelText"		"#GameUI_GameMenu_ExitReplay"
		"font"			"HudFontSmallBold"
		"textAlignment"	"west"
		"textinsetx"	"35"
		"use_proportional_insets" "1"
		"dulltext"		"0"
		"brighttext"	"0"
		"default"		"1"
		"Command"		"exitreplayeditor"
		"sound_depressed"	"UI/buttonclick.wav"
		"sound_released"	"UI/buttonclickrelease.wav"
		
		"image_drawcolor"	"235 226 202 255"
		"SubImage"
		{
			"ControlName"	"ImagePanel"
			"fieldName"		"SubImage"
			"xpos"			"16"
			"ypos"			"6"
			"zpos"			"1"
			"wide"			"14"
			"tall"			"14"
			"visible"		"1"
			"enabled"		"1"
			"scaleImage"	"1"
			"image"			"glyph_quit"
		}				
	}			
	
	"TutorialHighlight"
	{
		"ControlName"	"CExplanationPopup"
		"fieldName"		"TutorialHighlight"
		"xpos"			"c-325"//"c-285"
		"ypos"			"195"
		"zpos"			"100"
		"wide"			"250"
		"tall"			"120"
		"visible"		"0"
		"PaintBackgroundType"	"2"
		"paintbackground" "0"
		"border"		"MainMenuHighlightBorder"
		
		"start_x"		"c-85"
		"start_y"		"185"
		"start_wide"	"1"
		"start_tall"	"1"
		"end_x"			"c20"
		"end_y"			"120"
		"end_wide"		"250"
		"end_tall"		"120"
		"callout_inparents_x"	"c-40"
		"callout_inparents_y"	"195"
		
		"TitleLabel"
		{
			"ControlName"	"CExLabel"
			"fieldName"		"TitleLabel"
			"font"			"HudFontSmallBold"
			"labelText"		"%highlighttext%"
			"textAlignment"	"center"
			"xpos"			"20"
			"ypos"			"10"
			"wide"			"210"
			"tall"			"60"
			"autoResize"	"0"
			"pinCorner"		"0"
			"visible"		"1"
			"enabled"		"1"
			"wrap"			"1"
			"fgcolor_override" "46 43 42 255"
		}
		
		"TextLabel"
		{
			"ControlName"	"CExLabel"
			"fieldName"		"TextLabel"
			"font"			"HudFontSmall"
			"labelText"		"#MMenu_TutorialHighlight_Text"
			"textAlignment"	"south-west"
			"xpos"			"20"
			"ypos"			"60"
			"wide"			"210"
			"tall"			"20"
			"autoResize"	"0"
			"pinCorner"		"0"
			"visible"		"1"
			"enabled"		"1"
			"fgcolor_override" "46 43 42 255"
		}
		
		"TutorialHighlightButton"
		{
			"ControlName"	"EditablePanel"
			"fieldname"		"TutorialHighlightButton"
			"xpos"			"10"
			"ypos"			"85"
			"wide"			"230"
			"tall"			"26"
			"visible"		"1"
			
			"SubButton"
			{
				"ControlName"	"CExImageButton"
				"fieldName"		"SubButton"
				"xpos"			"0"
				"ypos"			"0"
				"wide"			"230"
				"tall"			"26"
				"autoResize"	"0"
				"pinCorner"		"3"
				"visible"		"1"
				"enabled"		"1"
				"tabPosition"	"0"
				"labeltext"		"#MMenu_TutorialHighlight_Button"
				"font"			"HudFontSmallBold"
				"textAlignment"	"center"
				"dulltext"		"0"
				"brighttext"	"0"
				"default"		"1"
				"sound_depressed"	"UI/buttonclick.wav"
				"sound_released"	"UI/buttonclickrelease.wav"
				"Command"		"tutorial"
				"actionsignallevel" "3"
				
				"border_default"	"MainMenuButtonDefault"
				"border_armed"		"MainMenuButtonArmed"
				"paintbackground"	"0"
				
				"defaultFgColor_override" "46 43 42 255"
				"armedFgColor_override" "235 226 202 255"
				"depressedFgColor_override" "46 43 42 255"
				
				"image_drawcolor"	"117 107 94 255"
				"image_armedcolor"	"235 226 202 255"
				"SubImage"
				{
					"ControlName"	"ImagePanel"
					"fieldName"		"SubImage"
					"xpos"			"6"
					"ypos"			"6"
					"zpos"			"1"
					"wide"			"14"
					"tall"			"14"
					"visible"		"1"
					"enabled"		"1"
					"scaleImage"	"1"
				}				
			}		
		}
		
		"CloseButton"
		{
			"ControlName"	"CExImageButton"
			"fieldName"		"CloseButton"
			"xpos"			"230"
			"ypos"			"5"
			"zpos"			"10"
			"wide"			"14"
			"tall"			"14"
			"autoResize"	"0"
			"pinCorner"		"0"
			"visible"		"1"
			"enabled"		"1"
			"tabPosition"	"0"
			"labeltext"		""
			"font"			"HudFontSmallBold"
			"textAlignment"	"center"
			"dulltext"		"0"
			"brighttext"	"0"
			"default"		"1"
			"sound_depressed"	"UI/buttonclick.wav"
			"sound_released"	"UI/buttonclickrelease.wav"
			"Command"		"close"
			
			"paintbackground"	"0"
			
			"defaultFgColor_override" "46 43 42 255"

			"armedFgColor_override" "235 226 202 255"
			"depressedFgColor_override" "46 43 42 255"
			
			"image_drawcolor"	"117 107 94 255"
			"image_armedcolor"	"200 80 60 255"
			"SubImage"
			{
				"ControlName"	"ImagePanel"
				"fieldName"		"SubImage"
				"xpos"			"0"
				"ypos"			"0"
				"zpos"			"1"
				"wide"			"14"
				"tall"			"14"
				"visible"		"1"
				"enabled"		"1"
				"image"			"close_button"
				"scaleImage"	"1"
			}				
		}		
	}	
	
	"PracticeHighlight"
	{
		"ControlName"	"CExplanationPopup"
		"fieldName"		"PracticeHighlight"
		"zpos"			"100"
		"wide"			"250"
		"tall"			"120"
		"visible"		"0"
		"PaintBackgroundType"	"2"
		"paintbackground" "0"
		"border"		"MainMenuHighlightBorder"
		
		"start_x"		"c-85"
		"start_y"		"185"
		"start_wide"	"1"
		"start_tall"	"1"
		"end_x"			"c20"
		"end_y"			"120"
		"end_wide"		"250"
		"end_tall"		"120"
		"callout_inparents_x"	"c-40"
		"callout_inparents_y"	"195"
		
		"TitleLabel"
		{
			"ControlName"	"CExLabel"
			"fieldName"		"TitleLabel"
			"font"			"HudFontSmallBold"
			"labelText"		"#MMenu_PracticeHighlight_Title"
			"textAlignment"	"center"
			"xpos"			"20"
			"ypos"			"10"
			"wide"			"210"
			"tall"			"50"
			"autoResize"	"0"
			"pinCorner"		"0"
			"visible"		"1"
			"enabled"		"1"
			"wrap"			"1"
			"fgcolor_override" "46 43 42 255"
		}
		
		"TextLabel"
		{
			"ControlName"	"CExLabel"
			"fieldName"		"TextLabel"
			"font"			"HudFontSmall"
			"labelText"		"#MMenu_PracticeHighlight_Text"
			"textAlignment"	"south-west"
			"xpos"			"20"
			"ypos"			"50"
			"wide"			"210"
			"tall"			"30"
			"autoResize"	"0"
			"pinCorner"		"0"
			"visible"		"1"
			"enabled"		"1"
			"fgcolor_override" "46 43 42 255"
		}
		
		"PracticeHighlightButton"
		{

			"ControlName"	"EditablePanel"
			"fieldname"		"PracticeHighlightButton"
			"xpos"			"10"
			"ypos"			"85"
			"wide"			"230"
			"tall"			"26"
			"visible"		"1"
			
			"SubButton"
			{
				"ControlName"	"CExImageButton"
				"fieldName"		"SubButton"
				"xpos"			"0"
				"ypos"			"0"
				"wide"			"230"
				"tall"			"26"
				"autoResize"	"0"
				"pinCorner"		"3"
				"visible"		"1"
				"enabled"		"1"
				"tabPosition"	"0"
				"labeltext"		"#MMenu_PracticeHighlight_Button"
				"font"			"HudFontSmallBold"
				"textAlignment"	"center"
				"dulltext"		"0"
				"brighttext"	"0"
				"default"		"1"
				"sound_depressed"	"UI/buttonclick.wav"
				"sound_released"	"UI/buttonclickrelease.wav"
				"Command"		"offlinepractice"
				"actionsignallevel" "3"
				
				"border_default"	"MainMenuButtonDefault"
				"border_armed"		"MainMenuButtonArmed"
				"paintbackground"	"0"

				
				"defaultFgColor_override" "46 43 42 255"
				"armedFgColor_override" "235 226 202 255"
				"depressedFgColor_override" "46 43 42 255"
				
				"image_drawcolor"	"117 107 94 255"
				"image_armedcolor"	"235 226 202 255"
				"SubImage"
				{
					"ControlName"	"ImagePanel"
					"fieldName"		"SubImage"
					"xpos"			"6"
					"ypos"			"6"
					"zpos"			"1"
					"wide"			"14"
					"tall"			"14"
					"visible"		"1"
					"enabled"		"1"
					"scaleImage"	"1"
				}				
			}		
		}
		
		"CloseButton"
		{
			"ControlName"	"CExImageButton"
			"fieldName"		"CloseButton"
			"xpos"			"230"
			"ypos"			"5"
			"zpos"			"10"
			"wide"			"14"
			"tall"			"14"
			"autoResize"	"0"
			"pinCorner"		"0"
			"visible"		"1"
			"enabled"		"1"
			"tabPosition"	"0"
			"labeltext"		""
			"font"			"HudFontSmallBold"
			"textAlignment"	"center"
			"dulltext"		"0"
			"brighttext"	"0"
			"default"		"1"
			"sound_depressed"	"UI/buttonclick.wav"
			"sound_released"	"UI/buttonclickrelease.wav"
			"Command"		"close"
			
			"paintbackground"	"0"
			
			"defaultFgColor_override" "46 43 42 255"
			"armedFgColor_override" "235 226 202 255"
			"depressedFgColor_override" "46 43 42 255"
			
			"image_drawcolor"	"117 107 94 255"
			"image_armedcolor"	"200 80 60 255"
			"SubImage"
			{
				"ControlName"	"ImagePanel"
				"fieldName"		"SubImage"
				"xpos"			"0"
				"ypos"			"0"
				"zpos"			"1"
				"wide"			"14"
				"tall"			"14"
				"visible"		"1"
				"enabled"		"1"
				"image"			"close_button"
				"scaleImage"	"1"
			}				
		}		
	}	
	
	"NewUserForumHighlight"
	{
		"ControlName"	"CExplanationPopup"
		"fieldName"		"NewUserForumHighlight"
		"xpos"			"c-55"
		"ypos"			"280"
		"zpos"			"100"
		"wide"			"250"
		"tall"			"120"
		"visible"		"0"
		"PaintBackgroundType"	"2"
		"paintbackground" "0"
		"border"		"MainMenuHighlightBorder"
		
		"start_x"		"c-112"
		"start_y"		"437"
		"start_wide"	"1"
		"start_tall"	"1"
		"end_x"			"c-205"
		"end_y"			"280"
		"end_wide"		"250"
		"end_tall"		"120"
		"callout_inparents_x"	"c-116"
		"callout_inparents_y"	"437"
		
		"TitleLabel"
		{
			"ControlName"	"CExLabel"
			"fieldName"		"TitleLabel"
			"font"			"HudFontSmallBold"
			"labelText"		"#MMenu_NewUserForumHighlight_Title"
			"textAlignment"	"north-west"
			"xpos"			"10"
			"ypos"			"10"
			"wide"			"210"
			"tall"			"20"
			"autoResize"	"0"
			"pinCorner"		"0"
			"visible"		"1"
			"enabled"		"1"
			"wrap"			"1"
			"fgcolor_override" "46 43 42 255"
		}
		
		"TextLabel"
		{
			"ControlName"	"CExLabel"
			"fieldName"		"TextLabel"
			"font"			"HudFontSmall"
			"labelText"		"#MMenu_NewUserForumHighlight_Text"
			"textAlignment"	"north-west"
			"xpos"			"20"
			"ypos"			"30"
			"wide"			"210"
			"tall"			"90"
			"autoResize"	"0"
			"pinCorner"		"0"
			"visible"		"1"
			"enabled"		"1"
			"wrap"			"1"
			"fgcolor_override" "46 43 42 255"
		}
		
		"CloseButton"
		{
			"ControlName"	"CExImageButton"
			"fieldName"		"CloseButton"
			"xpos"			"230"
			"ypos"			"5"
			"zpos"			"10"
			"wide"			"14"
			"tall"			"14"
			"autoResize"	"0"
			"pinCorner"		"0"
			"visible"		"1"
			"enabled"		"1"
			"tabPosition"	"0"
			"labeltext"		""
			"font"			"HudFontSmallBold"
			"textAlignment"	"center"
			"dulltext"		"0"
			"brighttext"	"0"
			"default"		"1"
			"sound_depressed"	"UI/buttonclick.wav"
			"sound_released"	"UI/buttonclickrelease.wav"
			"Command"		"close"
			
			"paintbackground"	"0"
			
			"defaultFgColor_override" "46 43 42 255"
			"armedFgColor_override" "235 226 202 255"
			"depressedFgColor_override" "46 43 42 255"
			
			"image_drawcolor"	"117 107 94 255"
			"image_armedcolor"	"200 80 60 255"
			"SubImage"
			{
				"ControlName"	"ImagePanel"
				"fieldName"		"SubImage"
				"xpos"			"0"
				"ypos"			"0"
				"zpos"			"1"
				"wide"			"14"
				"tall"			"14"
				"visible"		"1"
				"enabled"		"1"
				"image"			"close_button"
				"scaleImage"	"1"
			}				
		}		
	}	
	
	"OptionsHighlightPanel"
	{
		"ControlName"	"CExplanationPopup"
		"fieldName"		"OptionsHighlightPanel"
		"xpos"			"c-55"
		"ypos"			"280"
		"zpos"			"100"
		"wide"			"250"
		"tall"			"120"
		"visible"		"0"
		"PaintBackgroundType"	"2"
		"paintbackground" "0"
		"border"		"MainMenuHighlightBorder"
		
		"start_x"		"c238"
		"start_y"		"437"
		"start_wide"	"1"
		"start_tall"	"1"
		"end_x"			"c55"
		"end_y"			"280"
		"end_wide"		"250"
		"end_tall"		"120"
		"callout_inparents_x"	"c240"
		"callout_inparents_y"	"437"
		
		"TitleLabel"
		{
			"ControlName"	"CExLabel"
			"fieldName"		"TitleLabel"
			"font"			"HudFontSmallBold"
			"labelText"		"#MMenu_OptionsHighlightPanel_Title"
			"textAlignment"	"north-west"
			"xpos"			"10"
			"ypos"			"10"
			"wide"			"210"
			"tall"			"20"
			"autoResize"	"0"
			"pinCorner"		"0"
			"visible"		"1"
			"enabled"		"1"
			"wrap"			"1"
			"fgcolor_override" "46 43 42 255"
		}
		
		"TextLabel"
		{
			"ControlName"	"CExLabel"
			"fieldName"		"TextLabel"
			"font"			"HudFontSmall"
			"labelText"		"#MMenu_OptionsHighlightPanel_Text"
			"textAlignment"	"north-west"
			"xpos"			"20"
			"ypos"			"30"
			"wide"			"210"
			"tall"			"90"
			"autoResize"	"0"
			"pinCorner"		"0"
			"visible"		"1"
			"enabled"		"1"
			"wrap"			"1"
			"fgcolor_override" "46 43 42 255"
		}
		
		"CloseButton"
		{
			"ControlName"	"CExImageButton"
			"fieldName"		"CloseButton"
			"xpos"			"230"
			"ypos"			"5"
			"zpos"			"10"
			"wide"			"14"
			"tall"			"14"
			"autoResize"	"0"
			"pinCorner"		"0"
			"visible"		"1"
			"enabled"		"1"
			"tabPosition"	"0"
			"labeltext"		""
			"font"			"HudFontSmallBold"
			"textAlignment"	"center"
			"dulltext"		"0"
			"brighttext"	"0"
			"default"		"1"
			"sound_depressed"	"UI/buttonclick.wav"
			"sound_released"	"UI/buttonclickrelease.wav"
			"Command"		"close"
			
			"paintbackground"	"0"
			
			"defaultFgColor_override" "46 43 42 255"
			"armedFgColor_override" "235 226 202 255"
			"depressedFgColor_override" "46 43 42 255"
			
			"image_drawcolor"	"117 107 94 255"
			"image_armedcolor"	"200 80 60 255"
			"SubImage"
			{
				"ControlName"	"ImagePanel"
				"fieldName"		"SubImage"
				"xpos"			"0"
				"ypos"			"0"
				"zpos"			"1"
				"wide"			"14"
				"tall"			"14"
				"visible"		"1"
				"enabled"		"1"
				"image"			"close_button"
				"scaleImage"	"1"
			}				
		}		
	}
	
	"LoadoutHighlightPanel"
	{
		"ControlName"	"CExplanationPopup"
		"fieldName"		"LoadoutHighlightPanel"
		"xpos"			"c-55"
		"ypos"			"280"
		"zpos"			"100"
		"wide"			"250"
		"tall"			"120"
		"visible"		"0"
		"PaintBackgroundType"	"2"
		"paintbackground" "0"
		"border"		"MainMenuHighlightBorder"
		
		"start_x"		"c-190"
		"start_y"		"267"
		"start_wide"	"1"
		"start_tall"	"1"
		"end_x"			"c-125"
		"end_y"			"180"
		"end_wide"		"250"
		"end_tall"		"220"
		"callout_inparents_x"	"c-163"
		"callout_inparents_y"	"267"
		
		"TitleLabel"
		{
			"ControlName"	"CExLabel"
			"fieldName"		"TitleLabel"
			"font"			"HudFontSmallBold"
			"labelText"		"#MMenu_LoadoutHighlightPanel_Title"
			"textAlignment"	"north-west"
			"xpos"			"10"



			"ypos"			"10"
			"wide"			"210"
			"tall"			"20"
			"autoResize"	"0"
			"pinCorner"		"0"
			"visible"		"1"
			"enabled"		"1"
			"wrap"			"1"
			"fgcolor_override" "46 43 42 255"
		}
		
		"TextLabel"
		{
			"ControlName"	"CExLabel"
			"fieldName"		"TextLabel"
			"font"			"HudFontSmall"
			"labelText"		"#MMenu_LoadoutHighlightPanel_Text"
			"textAlignment"	"north-west"
			"xpos"			"20"
			"ypos"			"30"
			"wide"			"210"
			"tall"			"190"
			"autoResize"	"0"
			"pinCorner"		"0"
			"visible"		"1"
			"enabled"		"1"
			"wrap"			"1"
			"fgcolor_override" "46 43 42 255"
		}
		
		"CloseButton"
		{
			"ControlName"	"CExImageButton"
			"fieldName"		"CloseButton"
			"xpos"			"230"
			"ypos"			"5"
			"zpos"			"10"
			"wide"			"14"
			"tall"			"14"
			"autoResize"	"0"
			"pinCorner"		"0"
			"visible"		"1"
			"enabled"		"1"
			"tabPosition"	"0"
			"labeltext"		""
			"font"			"HudFontSmallBold"
			"textAlignment"	"center"
			"dulltext"		"0"
			"brighttext"	"0"
			"default"		"1"
			"sound_depressed"	"UI/buttonclick.wav"
			"sound_released"	"UI/buttonclickrelease.wav"
			"Command"		"close"
			
			"paintbackground"	"0"
			
			"defaultFgColor_override" "46 43 42 255"
			"armedFgColor_override" "235 226 202 255"
			"depressedFgColor_override" "46 43 42 255"
			
			"image_drawcolor"	"117 107 94 255"
			"image_armedcolor"	"200 80 60 255"
			"SubImage"
			{
				"ControlName"	"ImagePanel"
				"fieldName"		"SubImage"
				"xpos"			"0"
				"ypos"			"0"
				"zpos"			"1"
				"wide"			"14"
				"tall"			"14"
				"visible"		"1"
				"enabled"		"1"
				"image"			"close_button"
				"scaleImage"	"1"
			}				
		}		
	}

	"StoreHighlightPanel"
	{
		"ControlName"	"CExplanationPopup"
		"fieldName"		"StoreHighlightPanel"
		"xpos"			"c0"
		"ypos"			"300"
		"zpos"			"100"
		"wide"			"250"
		"tall"			"60"
		"visible"		"0"
		"PaintBackgroundType"	"2"
		"paintbackground" "0"
		"border"		"MainMenuHighlightBorder"
		
		"start_x"		"c20"
		"start_y"		"285"
		"start_wide"	"250"
		"start_tall"	"125"
		"end_x"			"c20"
		"end_y"			"285"
		"end_wide"		"250"
		"end_tall"		"125"
		"callout_inparents_x"	"c-40"
		"callout_inparents_y"	"267"
		
		"TitleLabel"
		{
			"ControlName"	"CExLabel"
			"fieldName"		"TitleLabel"
			"font"			"HudFontSmallBold"
			"labelText"		"#MMenu_StoreHighlightPanel_Title"
			"textAlignment"	"north-west"
			"xpos"			"10"
			"ypos"			"10"
			"wide"			"210"
			"tall"			"20"
			"autoResize"	"0"
			"pinCorner"		"0"
			"visible"		"1"
			"enabled"		"1"
			"wrap"			"1"
			"fgcolor_override" "46 43 42 255"
		}
		
		"TextLabel"
		{
			"ControlName"	"CExLabel"
			"fieldName"		"TextLabel"
			"font"			"HudFontSmall"
			"labelText"		"%highlighttext%"
			"textAlignment"	"north-west"
			"xpos"			"20"
			"ypos"			"30"
			"wide"			"210"
			"tall"			"190"
			"autoResize"	"0"
			"pinCorner"		"0"
			"visible"		"1"
			"enabled"		"1"
			"wrap"			"1"
			"fgcolor_override" "46 43 42 255"
		}
		
		"CloseButton"
		{
			"ControlName"	"CExImageButton"
			"fieldName"		"CloseButton"
			"xpos"			"230"
			"ypos"			"5"
			"zpos"			"10"
			"wide"			"14"
			"tall"			"14"
			"autoResize"	"0"
			"pinCorner"		"0"
			"visible"		"1"
			"enabled"		"1"
			"tabPosition"	"0"
			"labeltext"		""
			"font"			"HudFontSmallBold"
			"textAlignment"	"center"
			"dulltext"		"0"
			"brighttext"	"0"
			"default"		"1"
			"sound_depressed"	"UI/buttonclick.wav"
			"sound_released"	"UI/buttonclickrelease.wav"
			"Command"		"close"
			
			"paintbackground"	"0"
			
			"defaultFgColor_override" "46 43 42 255"
			"armedFgColor_override" "235 226 202 255"
			"depressedFgColor_override" "46 43 42 255"
			
			"image_drawcolor"	"117 107 94 255"
			"image_armedcolor"	"200 80 60 255"
			"SubImage"
			{
				"ControlName"	"ImagePanel"
				"fieldName"		"SubImage"
				"xpos"			"0"
				"ypos"			"0"
				"zpos"			"1"
				"wide"			"14"
				"tall"			"14"
				"visible"		"1"
				"enabled"		"1"
				"image"			"close_button"
				"scaleImage"	"1"
			}				
		}		
	}
	"CompetitiveAccessInfoPanel"
	{
		"ControlName"	"CCompetitiveAccessInfoPanel"
		"fieldName"		"CompetitiveAccessInfoPanel"
		"xpos"			"cs-0.5"
		"ypos"			"cs-0.5"
		"zpos"			"1000"
		"wide"			"f0"
		"tall"			"f0"
		"visible"		"0"
	}

	"FriendsContainer"
	{
		"ControlName"	"EditablePanel"
		"fieldname"		"FriendsContainer"
		"xpos"			"c26"
		"ypos"			"102" //260
		"zpos"			"-20"
		"wide"			"260"
		"tall"			"160"
		"visible"		"1"

		"border"		"MainMenuBGBorder"

		"TitleLabel"
		{
			"ControlName"	"CExLabel"
			"fieldName"		"TitleLabel"
			"font"			"HudFontSmallBold"
			"labelText"		"#TF_Competitive_Friends"
			"textAlignment"	"west"
			"xpos"			"12"
			"ypos"			"0"
			"wide"			"f0"
			"tall"			"30"
			"autoResize"	"0"
			"pinCorner"		"0"
			"visible"		"1"
			"enabled"		"1"
			"textinsetx"	"0"
			"fgcolor_override"	"235 227 203 255"
		}

		"InnerShadow"
		{
			"ControlName"	"EditablePanel"
			"fieldname"		"InnerShadow"
			"xpos"			"cs-0.5"
			"ypos"			"rs1-10"
			"zpos"			"501"
			"wide"			"f20"
			"tall"			"120"
			"visible"		"1"	
			"PaintBackgroundType"	"0"
			"proportionaltoparent"	"1"
			"mouseinputenabled"	"0"

			"paintborder"	"1"
			"border"		"InnerShadowBorder"
		}

		"SteamFriendsList"
		{
			"ControlName"	"CSteamFriendsListPanel"
			"fieldname"		"SteamFriendsList"
			"xpos"			"cs-0.5"
			"ypos"			"rs1-10"
			"zpos"			"500"
			"wide"			"f20"
			"tall"			"120"
			"visible"		"1"
			"proportionaltoparent"	"1"

			"columns_count"	"2"
			"inset_x"		"10"
			"inset_y"		"5"
			"row_gap"		"5"
			"column_gap"	"20"
			"restrict_width"	"0"

			"friendpanel_kv"
			{
				"wide"		"100"
				"tall"		"20"
			}

			"ScrollBar"
			{
				"ControlName"	"ScrollBar"
				"FieldName"		"ScrollBar"
				"xpos"			"rs1-1"
				"ypos"			"0"
				"tall"			"f0"
				"wide"			"5" // This gets slammed from client schme.  GG.
				"zpos"			"1000"
				"nobuttons"		"1"
				"proportionaltoparent"	"1"

				"Slider"
				{
					"fgcolor_override"	"TanDark"
				}
		
				"UpButton"
				{
					"ControlName"	"Button"
					"FieldName"		"UpButton"
					"visible"		"0"
				}
		
				"DownButton"
				{
					"ControlName"	"Button"
					"FieldName"		"DownButton"
					"visible"		"0"
				}
			}
		}

		"BelowDarken"
		{
			"ControlName"	"EditablePanel"
			"fieldname"		"BelowDarken"
			"xpos"			"cs-0.5"
			"ypos"			"rs1-10"
			"zpos"			"499"
			"wide"			"f20"
			"tall"			"120"
			"visible"		"1"	
			"PaintBackgroundType"	"0"
			"proportionaltoparent"	"1"
			"mouseinputenabled"	"0"

			"bgcolor_override"	"0 0 0 100"
		}
	}

	"EventPromo"
	{
		"ControlName"	"EditablePanel"
		"fieldname"		"EventPromo"
		"xpos"			"c26"
		"ypos"			"252"	//216
		"zpos"			"-50"
		"wide"			"270"
		"tall"			"110" //140
		"visible"		"1"

		"Background"
		{
			"ControlName"	"EditablePanel"
			"fieldname"		"Background"
			"xpos"			"0"
			"ypos"			"20"
			"zpos"			"0"
			"wide"			"260"
			"tall"			"100"	//120
			"visible"		"1"
			"PaintBackgroundType"	"0"
			"proportionaltoparent"	"1"

			"paintborder"	"1"
			"border"		"MainMenuBGBorder"

			"TitleLabel"
			{
				"ControlName"	"CExLabel"
				"fieldName"		"TitleLabel"
				"font"			"HudFontSmallBold"
				"labelText"		"#MMenu_Update"
				"textAlignment"	"west"
				"xpos"			"12"
				"ypos"			"0"
				"wide"			"f0"
				"tall"			"30" 		//30
				"autoResize"	"0"
				"pinCorner"		"0"
				"visible"		"1"
				"enabled"		"1"
				"textinsetx"	"0"
				"fgcolor_override"	"235 227 203 255"
			}


			"CyclingAd"
			{
				"ControlName"			"CCyclingAdContainerPanel"
				"fieldName"				"CyclingAd"
				"xpos"					"5"
				"ypos"					"29"
				"zpos"					"100"
				"wide"					"f10"
				"tall"					"50" //60
				"visible"				"1"
				"enabled"				"1"
				"scaleImage"			"1"
				"proportionaltoparent"	"1"

				"bgcolor_override"		"0 0 0 255"

				"items"
				{
					"0"
					{
						"item"		"Halloween 2018 Key" 
						"show_market"	"0"
					}
					"1"
					{
						"item"		"Halloween 2018 Case"
						"show_market"	"1"
					}
					"2"
					{
						"item"		"Scream Fortress 2018 War Paint Key"
						"show_market"	"0"
					}
					"3"
					{
						"item"		"Scream Fortress 2018 War Paint Case"
						"show_market"	"1"
					}
					"4"
					{
						"item"		"Taunt: Panzer Pants"
						"show_market"	"0"
					}
					"5"
					{
						"item"		"Taunt: The Scooty Scoot"
						"show_market"	"0"
					}	


				}
			}

		} // Background

	} // EventPromo

	"SafeMode"
	{
		"ControlName"	"EditablePanel"
		"fieldname"		"SafeMode"
		"xpos"			"c-290"
		"ypos"			"210"
		"zpos"			"-50"
		"wide"			"270"
		"tall"			"190"
		"visible"		"0"

		"Background"
		{
			"ControlName"	"EditablePanel"
			"fieldname"		"Background"
			"xpos"			"0"
			"ypos"			"20"
			"zpos"			"0"
			"wide"			"260"
			"tall"			"p0.88"
			"visible"		"1"
			"PaintBackgroundType"	"0"
			"proportionaltoparent"	"1"

			"paintborder"	"1"
			"border"		"MainMenuBGBorder"

			"TitleLabel"
			{
				"ControlName"	"CExLabel"
				"fieldName"		"TitleLabel"
				"font"			"HudFontSmallBold"
				"labelText"		"#MMenu_SafeMode_Title"
				"textAlignment"	"west"
				"xpos"			"0"
				"ypos"			"0"
				"wide"			"f0"
				"tall"			"30"
				"autoResize"	"0"
				"pinCorner"		"0"
				"visible"		"1"
				"enabled"		"1"
				"textinsetx"	"20"
				"fgcolor_override"	"235 227 203 255"
			}
	
			"SaveSettingsButton"
			{
				"ControlName"	"CExButton"
				"fieldName"		"SaveSettingsButton"
				"xpos"			"p0.02"
				"ypos"			"rs1-30"
				"zpos"			"11"
				"wide"			"250"
				"tall"			"26"
				"autoResize"	"0"
				"pinCorner"		"3"
				"visible"		"1"
				"enabled"		"1"
				"tabPosition"	"0"
				"use_proportional_insets" "1"
				"font"			"HudFontSmallBold"
				"textAlignment"	"west"
				"dulltext"		"0"
				"brighttext"	"0"
				"default"		"1"
				"sound_depressed"	"UI/buttonclick.wav"
				"sound_released"	"UI/buttonclickrelease.wav"
				"labeltext"		"#MMenu_SafeMode_SaveSettings"
				"proportionaltoparent"	"1"
				"command"		"safemode_save_settings"
				"actionsignallevel"	"3"
			
				"border_default"	"MainMenuButtonDefault"
				"border_armed"		"MainMenuButtonArmed"
				"paintbackground"	"0"
			
				"defaultFgColor_override" "46 43 42 255"
				"armedFgColor_override" "235 226 202 255"
				"depressedFgColor_override" "46 43 42 255"
			}

	
			"LeaveSafeModeButton"
			{
				"ControlName"	"CExButton"
				"fieldName"		"SubButton"
				"xpos"			"p0.02"
				"ypos"			"rs1-5"
				"zpos"			"11"
				"wide"			"250"
				"tall"			"26"
				"autoResize"	"0"
				"pinCorner"		"3"
				"visible"		"1"
				"enabled"		"1"
				"tabPosition"	"0"
				"use_proportional_insets" "1"
				"font"			"HudFontSmallBold"
				"textAlignment"	"west"
				"dulltext"		"0"
				"brighttext"	"0"
				"default"		"1"
				"sound_depressed"	"UI/buttonclick.wav"
				"sound_released"	"UI/buttonclickrelease.wav"
				"labeltext"		"#MMenu_SafeMode_LeaveSafeMode"
				"proportionaltoparent"	"1"
				"command"		"safemode_leave"
				"actionsignallevel"	"3"
			
				"border_default"	"MainMenuButtonDefault"
				"border_armed"		"MainMenuButtonArmed"
				"paintbackground"	"0"
			
				"defaultFgColor_override" "46 43 42 255"
				"armedFgColor_override" "235 226 202 255"
				"depressedFgColor_override" "46 43 42 255"
			}

			"Explanation"
			{
				"ControlName"			"Label"
				"fieldName"				"Explanation"
				"xpos"					"cs-0.5"
				"ypos"					"30"
				"zpos"					"100"
				"wide"					"p0.92"
				"tall"					"p0.5"
				"textAlignment"			"north-west"
				"visible"				"1"
				"enabled"				"1"
				"scaleImage"			"1"
				"proportionaltoparent"	"1"
				"wrap"					"1"
				"labelText"				"#MMenu_SafeMode_Explanation"
				"proportionaltoparent"	"1"
				"font"					"HudFontSmallest"
			}

		} // Background

		"InfoImage"
		{
			"ControlName"			"ImagePanel"
			"fieldName"				"InfoImage"
			"xpos"					"rs1-5"
			"ypos"					"5"
			"zpos"					"100"
			"wide"					"40"
			"tall"					"o1"
			"visible"				"1"
			"enabled"				"1"
			"image"					"info"
			"scaleImage"			"1"
			"proportionaltoparent"	"1"
			"mouseinputenabled"		"0"
		}

	} // SafeMode




	"icon_generator"
	{
		"ControlName"		"CEmbeddedItemModelPanel"
		"fieldName"		"icon_generator"

		"xpos"			"0"
		"ypos"			"0"
		"zpos"			"1"		
		"wide"			"300"
		"tall"			"300"
		"autoResize"		"0"
		"pinCorner"		"0"
		"visible"		"1"
		"enabled"		"1"
		"useparentbg"		"1"
	
		"inset_eq_x"	"2"
		"inset_eq_y"	"2"

		"fov"			"54"
		"start_framed"		"1"

		"disable_manipulation"	"1"

		"model"
		{
			"angles_x"		"10"
			"angles_y"		"130"
			"angles_z"		"0"
		}
	}
	}
}
